%YAML 1.1
%TAG !u! tag:unity3d.com,2011:
--- !u!29 &1
OcclusionCullingSettings:
  m_ObjectHideFlags: 0
  serializedVersion: 2
  m_OcclusionBakeSettings:
    smallestOccluder: 5
    smallestHole: 0.25
    backfaceThreshold: 100
  m_SceneGUID: 00000000000000000000000000000000
  m_OcclusionCullingData: {fileID: 0}
--- !u!104 &2
RenderSettings:
  m_ObjectHideFlags: 0
  serializedVersion: 9
  m_Fog: 0
  m_FogColor: {r: 0.20754719, g: 0.20754719, b: 0.20754719, a: 1}
  m_FogMode: 3
  m_FogDensity: 0.05
  m_LinearFogStart: 0
  m_LinearFogEnd: 300
  m_AmbientSkyColor: {r: 0.14111158, g: 0.16796917, b: 0.2205882, a: 1}
  m_AmbientEquatorColor: {r: 0.2647059, g: 0.259444, b: 0.23745675, a: 1}
  m_AmbientGroundColor: {r: 0.047, g: 0.043, b: 0.035, a: 1}
  m_AmbientIntensity: 1
  m_AmbientMode: 0
  m_SubtractiveShadowColor: {r: 0.42, g: 0.478, b: 0.627, a: 1}
  m_SkyboxMaterial: {fileID: 2100000, guid: d1385980456cd2044b282d73625457db, type: 2}
  m_HaloStrength: 0.5
  m_FlareStrength: 1
  m_FlareFadeSpeed: 3
  m_HaloTexture: {fileID: 0}
  m_SpotCookie: {fileID: 10001, guid: 0000000000000000e000000000000000, type: 0}
  m_DefaultReflectionMode: 0
  m_DefaultReflectionResolution: 128
  m_ReflectionBounces: 1
  m_ReflectionIntensity: 1
  m_CustomReflection: {fileID: 0}
  m_Sun: {fileID: 0}
  m_IndirectSpecularColor: {r: 0.13306755, g: 0.17116472, b: 0.25096953, a: 1}
  m_UseRadianceAmbientProbe: 0
--- !u!157 &3
LightmapSettings:
  m_ObjectHideFlags: 0
  serializedVersion: 11
  m_GIWorkflowMode: 1
  m_GISettings:
    serializedVersion: 2
    m_BounceScale: 1
    m_IndirectOutputScale: 1
    m_AlbedoBoost: 1
    m_TemporalCoherenceThreshold: 1
    m_EnvironmentLightingMode: 0
    m_EnableBakedLightmaps: 0
    m_EnableRealtimeLightmaps: 1
  m_LightmapEditorSettings:
    serializedVersion: 10
    m_Resolution: 2
    m_BakeResolution: 40
    m_AtlasSize: 1024
    m_AO: 0
    m_AOMaxDistance: 1
    m_CompAOExponent: 1
    m_CompAOExponentDirect: 0
    m_Padding: 2
    m_LightmapParameters: {fileID: 0}
    m_LightmapsBakeMode: 1
    m_TextureCompression: 1
    m_FinalGather: 0
    m_FinalGatherFiltering: 1
    m_FinalGatherRayCount: 256
    m_ReflectionCompression: 2
    m_MixedBakeMode: 1
    m_BakeBackend: 0
    m_PVRSampling: 1
    m_PVRDirectSampleCount: 32
    m_PVRSampleCount: 500
    m_PVRBounces: 2
    m_PVRFilterTypeDirect: 0
    m_PVRFilterTypeIndirect: 0
    m_PVRFilterTypeAO: 0
    m_PVRFilteringMode: 1
    m_PVRCulling: 1
    m_PVRFilteringGaussRadiusDirect: 1
    m_PVRFilteringGaussRadiusIndirect: 5
    m_PVRFilteringGaussRadiusAO: 2
    m_PVRFilteringAtrousPositionSigmaDirect: 0.5
    m_PVRFilteringAtrousPositionSigmaIndirect: 2
    m_PVRFilteringAtrousPositionSigmaAO: 1
    m_ShowResolutionOverlay: 1
  m_LightingDataAsset: {fileID: 112000002, guid: c482561641a25514791bf19c84125d92,
    type: 2}
  m_UseShadowmask: 0
--- !u!196 &4
NavMeshSettings:
  serializedVersion: 2
  m_ObjectHideFlags: 0
  m_BuildSettings:
    serializedVersion: 2
    agentTypeID: 0
    agentRadius: 0.5
    agentHeight: 2
    agentSlope: 45
    agentClimb: 0.4
    ledgeDropHeight: 0
    maxJumpAcrossDistance: 0
    minRegionArea: 2
    manualCellSize: 0
    cellSize: 0.16666667
    manualTileSize: 0
    tileSize: 256
    accuratePlacement: 0
    debug:
      m_Flags: 0
  m_NavMeshData: {fileID: 0}
--- !u!4 &133599303 stripped
Transform:
  m_PrefabParentObject: {fileID: 4000011175361746, guid: 7ca96822084510147adb2aea03d45e3b,
    type: 2}
  m_PrefabInternal: {fileID: 1689786812}
--- !u!198 &133599305 stripped
ParticleSystem:
  m_PrefabParentObject: {fileID: 198000010131513902, guid: 7ca96822084510147adb2aea03d45e3b,
    type: 2}
  m_PrefabInternal: {fileID: 1689786812}
--- !u!1 &190732354
GameObject:
  m_ObjectHideFlags: 0
  m_PrefabParentObject: {fileID: 0}
  m_PrefabInternal: {fileID: 0}
  serializedVersion: 5
  m_Component:
  - component: {fileID: 190732355}
  - component: {fileID: 190732356}
  - component: {fileID: 190732357}
  m_Layer: 5
  m_Name: DescriptionText
  m_TagString: Untagged
  m_Icon: {fileID: 0}
  m_NavMeshLayer: 0
  m_StaticEditorFlags: 0
  m_IsActive: 1
--- !u!224 &190732355
RectTransform:
  m_ObjectHideFlags: 0
  m_PrefabParentObject: {fileID: 0}
  m_PrefabInternal: {fileID: 0}
  m_GameObject: {fileID: 190732354}
  m_LocalRotation: {x: -0, y: -0, z: -0, w: 1}
  m_LocalPosition: {x: 0, y: 0, z: 0}
  m_LocalScale: {x: 1, y: 1, z: 1}
  m_Children: []
  m_Father: {fileID: 2136418208}
  m_RootOrder: 1
  m_LocalEulerAnglesHint: {x: 0, y: 0, z: 0}
  m_AnchorMin: {x: 0.05, y: 0.05}
  m_AnchorMax: {x: 0.95, y: 0.75}
  m_AnchoredPosition: {x: 0, y: 0}
  m_SizeDelta: {x: 0, y: 0}
  m_Pivot: {x: 0, y: 1}
--- !u!222 &190732356
CanvasRenderer:
  m_ObjectHideFlags: 0
  m_PrefabParentObject: {fileID: 0}
  m_PrefabInternal: {fileID: 0}
  m_GameObject: {fileID: 190732354}
--- !u!114 &190732357
MonoBehaviour:
  m_ObjectHideFlags: 0
  m_PrefabParentObject: {fileID: 0}
  m_PrefabInternal: {fileID: 0}
  m_GameObject: {fileID: 190732354}
  m_Enabled: 1
  m_EditorHideFlags: 0
  m_Script: {fileID: 708705254, guid: f5f67c52d1564df4a8936ccd202a3bd8, type: 3}
  m_Name: 
  m_EditorClassIdentifier: 
  m_Material: {fileID: 0}
  m_Color: {r: 1, g: 1, b: 1, a: 1}
  m_RaycastTarget: 1
  m_OnCullStateChanged:
    m_PersistentCalls:
      m_Calls: []
    m_TypeName: UnityEngine.UI.MaskableGraphic+CullStateChangedEvent, UnityEngine.UI,
      Version=1.0.0.0, Culture=neutral, PublicKeyToken=null
  m_FontData:
    m_Font: {fileID: 12800000, guid: cd25d80d03a864fdd90534b28f15208a, type: 3}
    m_FontSize: 20
    m_FontStyle: 0
    m_BestFit: 1
    m_MinSize: 2
    m_MaxSize: 20
    m_Alignment: 0
    m_AlignByGeometry: 0
    m_RichText: 1
    m_HorizontalOverflow: 0
    m_VerticalOverflow: 0
    m_LineSpacing: 1
  m_Text: 'Title

'
--- !u!1 &275818327
GameObject:
  m_ObjectHideFlags: 0
  m_PrefabParentObject: {fileID: 0}
  m_PrefabInternal: {fileID: 0}
  serializedVersion: 5
  m_Component:
  - component: {fileID: 275818328}
  - component: {fileID: 275818331}
  - component: {fileID: 275818330}
  - component: {fileID: 275818329}
  m_Layer: 5
  m_Name: ButtonLeft
  m_TagString: Untagged
  m_Icon: {fileID: 0}
  m_NavMeshLayer: 0
  m_StaticEditorFlags: 0
  m_IsActive: 1
--- !u!224 &275818328
RectTransform:
  m_ObjectHideFlags: 0
  m_PrefabParentObject: {fileID: 0}
  m_PrefabInternal: {fileID: 0}
  m_GameObject: {fileID: 275818327}
  m_LocalRotation: {x: 0, y: 0, z: 0, w: 1}
  m_LocalPosition: {x: 0, y: 0, z: 0}
  m_LocalScale: {x: 0.5, y: 0.5, z: 0.5}
  m_Children:
  - {fileID: 934704044}
  m_Father: {fileID: 1625577195}
  m_RootOrder: 0
  m_LocalEulerAnglesHint: {x: 0, y: 0, z: 0}
  m_AnchorMin: {x: 0, y: 0}
  m_AnchorMax: {x: 0, y: 0}
  m_AnchoredPosition: {x: 0, y: 0}
  m_SizeDelta: {x: 0, y: 0}
  m_Pivot: {x: 0.5, y: 0.5}
--- !u!114 &275818329
MonoBehaviour:
  m_ObjectHideFlags: 0
  m_PrefabParentObject: {fileID: 0}
  m_PrefabInternal: {fileID: 0}
  m_GameObject: {fileID: 275818327}
  m_Enabled: 1
  m_EditorHideFlags: 0
  m_Script: {fileID: 1392445389, guid: f5f67c52d1564df4a8936ccd202a3bd8, type: 3}
  m_Name: 
  m_EditorClassIdentifier: 
  m_Navigation:
    m_Mode: 3
    m_SelectOnUp: {fileID: 0}
    m_SelectOnDown: {fileID: 0}
    m_SelectOnLeft: {fileID: 0}
    m_SelectOnRight: {fileID: 0}
  m_Transition: 1
  m_Colors:
    m_NormalColor: {r: 1, g: 1, b: 1, a: 1}
    m_HighlightedColor: {r: 0.9607843, g: 0.9607843, b: 0.9607843, a: 1}
    m_PressedColor: {r: 0.78431374, g: 0.78431374, b: 0.78431374, a: 1}
    m_DisabledColor: {r: 0.78431374, g: 0.78431374, b: 0.78431374, a: 0.5019608}
    m_ColorMultiplier: 1
    m_FadeDuration: 0.1
  m_SpriteState:
    m_HighlightedSprite: {fileID: 0}
    m_PressedSprite: {fileID: 0}
    m_DisabledSprite: {fileID: 0}
  m_AnimationTriggers:
    m_NormalTrigger: Normal
    m_HighlightedTrigger: Highlighted
    m_PressedTrigger: Pressed
    m_DisabledTrigger: Disabled
  m_Interactable: 1
  m_TargetGraphic: {fileID: 275818330}
  m_OnClick:
    m_PersistentCalls:
      m_Calls:
      - m_Target: {fileID: 978515823}
        m_MethodName: Navigate
        m_Mode: 3
        m_Arguments:
          m_ObjectArgument: {fileID: 0}
          m_ObjectArgumentAssemblyTypeName: UnityEngine.Object, UnityEngine
          m_IntArgument: -1
          m_FloatArgument: 0
          m_StringArgument: 
          m_BoolArgument: 0
        m_CallState: 2
    m_TypeName: UnityEngine.UI.Button+ButtonClickedEvent, UnityEngine.UI, Version=1.0.0.0,
      Culture=neutral, PublicKeyToken=null
--- !u!114 &275818330
MonoBehaviour:
  m_ObjectHideFlags: 0
  m_PrefabParentObject: {fileID: 0}
  m_PrefabInternal: {fileID: 0}
  m_GameObject: {fileID: 275818327}
  m_Enabled: 1
  m_EditorHideFlags: 0
  m_Script: {fileID: -765806418, guid: f5f67c52d1564df4a8936ccd202a3bd8, type: 3}
  m_Name: 
  m_EditorClassIdentifier: 
  m_Material: {fileID: 0}
  m_Color: {r: 1, g: 1, b: 1, a: 0.078}
  m_RaycastTarget: 1
  m_OnCullStateChanged:
    m_PersistentCalls:
      m_Calls: []
    m_TypeName: UnityEngine.UI.MaskableGraphic+CullStateChangedEvent, UnityEngine.UI,
      Version=1.0.0.0, Culture=neutral, PublicKeyToken=null
  m_Sprite: {fileID: 10907, guid: 0000000000000000f000000000000000, type: 0}
  m_Type: 1
  m_PreserveAspect: 0
  m_FillCenter: 1
  m_FillMethod: 4
  m_FillAmount: 1
  m_FillClockwise: 1
  m_FillOrigin: 0
--- !u!222 &275818331
CanvasRenderer:
  m_ObjectHideFlags: 0
  m_PrefabParentObject: {fileID: 0}
  m_PrefabInternal: {fileID: 0}
  m_GameObject: {fileID: 275818327}
--- !u!1 &296153490
GameObject:
  m_ObjectHideFlags: 0
  m_PrefabParentObject: {fileID: 0}
  m_PrefabInternal: {fileID: 0}
  serializedVersion: 5
  m_Component:
  - component: {fileID: 296153492}
  - component: {fileID: 296153491}
  m_Layer: 0
  m_Name: Reflection Probe
  m_TagString: Untagged
  m_Icon: {fileID: 0}
  m_NavMeshLayer: 0
  m_StaticEditorFlags: 0
  m_IsActive: 1
--- !u!215 &296153491
ReflectionProbe:
  m_ObjectHideFlags: 0
  m_PrefabParentObject: {fileID: 0}
  m_PrefabInternal: {fileID: 0}
  m_GameObject: {fileID: 296153490}
  m_Enabled: 1
  serializedVersion: 2
  m_Type: 0
  m_Mode: 0
  m_RefreshMode: 0
  m_TimeSlicingMode: 0
  m_Resolution: 128
  m_UpdateFrequency: 0
  m_BoxSize: {x: 20, y: 20, z: 20}
  m_BoxOffset: {x: 0, y: 0, z: 0}
  m_NearClip: 0.3
  m_FarClip: 1000
  m_ShadowDistance: 100
  m_ClearFlags: 1
  m_BackGroundColor: {r: 0.19215687, g: 0.3019608, b: 0.4745098, a: 0}
  m_CullingMask:
    serializedVersion: 2
    m_Bits: 4294967295
  m_IntensityMultiplier: 1
  m_BlendDistance: 1
  m_HDR: 1
  m_BoxProjection: 0
  m_RenderDynamicObjects: 0
  m_UseOcclusionCulling: 1
  m_Importance: 1
  m_CustomBakedTexture: {fileID: 0}
--- !u!4 &296153492
Transform:
  m_ObjectHideFlags: 0
  m_PrefabParentObject: {fileID: 0}
  m_PrefabInternal: {fileID: 0}
  m_GameObject: {fileID: 296153490}
  m_LocalRotation: {x: 0, y: 0, z: 0, w: 1}
  m_LocalPosition: {x: 2.45, y: 2.06, z: 5.63}
  m_LocalScale: {x: 1, y: 1, z: 1}
  m_Children: []
  m_Father: {fileID: 0}
  m_RootOrder: 6
  m_LocalEulerAnglesHint: {x: 0, y: 0, z: 0}
--- !u!1 &381972496 stripped
GameObject:
  m_PrefabParentObject: {fileID: 100000, guid: f4527c479041fc040b53171204c086a5, type: 3}
  m_PrefabInternal: {fileID: 1908232631}
--- !u!64 &381972497
MeshCollider:
  m_ObjectHideFlags: 0
  m_PrefabParentObject: {fileID: 0}
  m_PrefabInternal: {fileID: 0}
  m_GameObject: {fileID: 381972496}
  m_Material: {fileID: 0}
  m_IsTrigger: 0
  m_Enabled: 1
  serializedVersion: 3
  m_Convex: 0
  m_CookingOptions: 14
  m_SkinWidth: 0.01
  m_Mesh: {fileID: 4300000, guid: f4527c479041fc040b53171204c086a5, type: 3}
--- !u!1001 &497163976
Prefab:
  m_ObjectHideFlags: 0
  serializedVersion: 2
  m_Modification:
    m_TransformParent: {fileID: 0}
    m_Modifications:
    - target: {fileID: 4194134086287040, guid: de85e5d9df7b15d4c9613318afceb0cb, type: 2}
      propertyPath: m_LocalPosition.x
      value: -104
      objectReference: {fileID: 0}
    - target: {fileID: 4194134086287040, guid: de85e5d9df7b15d4c9613318afceb0cb, type: 2}
      propertyPath: m_LocalPosition.y
      value: 265
      objectReference: {fileID: 0}
    - target: {fileID: 4194134086287040, guid: de85e5d9df7b15d4c9613318afceb0cb, type: 2}
      propertyPath: m_LocalPosition.z
      value: -196
      objectReference: {fileID: 0}
    - target: {fileID: 4194134086287040, guid: de85e5d9df7b15d4c9613318afceb0cb, type: 2}
      propertyPath: m_LocalRotation.x
      value: 0.0085523045
      objectReference: {fileID: 0}
    - target: {fileID: 4194134086287040, guid: de85e5d9df7b15d4c9613318afceb0cb, type: 2}
      propertyPath: m_LocalRotation.y
      value: -0.7070551
      objectReference: {fileID: 0}
    - target: {fileID: 4194134086287040, guid: de85e5d9df7b15d4c9613318afceb0cb, type: 2}
      propertyPath: m_LocalRotation.z
      value: -0.0085523045
      objectReference: {fileID: 0}
    - target: {fileID: 4194134086287040, guid: de85e5d9df7b15d4c9613318afceb0cb, type: 2}
      propertyPath: m_LocalRotation.w
      value: 0.7070551
      objectReference: {fileID: 0}
    - target: {fileID: 4194134086287040, guid: de85e5d9df7b15d4c9613318afceb0cb, type: 2}
      propertyPath: m_RootOrder
      value: 7
      objectReference: {fileID: 0}
    - target: {fileID: 114942559052303630, guid: de85e5d9df7b15d4c9613318afceb0cb,
        type: 2}
      propertyPath: m_havePropertiesChanged
      value: 1
      objectReference: {fileID: 0}
    - target: {fileID: 114942559052303630, guid: de85e5d9df7b15d4c9613318afceb0cb,
        type: 2}
      propertyPath: m_isInputParsingRequired
      value: 1
      objectReference: {fileID: 0}
    - target: {fileID: 114616241249446054, guid: de85e5d9df7b15d4c9613318afceb0cb,
        type: 2}
      propertyPath: m_havePropertiesChanged
      value: 1
      objectReference: {fileID: 0}
    - target: {fileID: 114616241249446054, guid: de85e5d9df7b15d4c9613318afceb0cb,
        type: 2}
      propertyPath: m_isInputParsingRequired
      value: 1
      objectReference: {fileID: 0}
    - target: {fileID: 114015012698820130, guid: de85e5d9df7b15d4c9613318afceb0cb,
        type: 2}
      propertyPath: m_havePropertiesChanged
      value: 1
      objectReference: {fileID: 0}
    - target: {fileID: 114015012698820130, guid: de85e5d9df7b15d4c9613318afceb0cb,
        type: 2}
      propertyPath: m_isInputParsingRequired
      value: 1
      objectReference: {fileID: 0}
    - target: {fileID: 114371227664041080, guid: de85e5d9df7b15d4c9613318afceb0cb,
        type: 2}
      propertyPath: m_havePropertiesChanged
      value: 1
      objectReference: {fileID: 0}
    - target: {fileID: 114371227664041080, guid: de85e5d9df7b15d4c9613318afceb0cb,
        type: 2}
      propertyPath: m_isInputParsingRequired
      value: 1
      objectReference: {fileID: 0}
    - target: {fileID: 1384040361763238, guid: de85e5d9df7b15d4c9613318afceb0cb, type: 2}
      propertyPath: m_IsActive
      value: 0
      objectReference: {fileID: 0}
    m_RemovedComponents: []
  m_ParentPrefab: {fileID: 100100000, guid: de85e5d9df7b15d4c9613318afceb0cb, type: 2}
  m_IsPrefabParent: 0
--- !u!1 &738997239
GameObject:
  m_ObjectHideFlags: 0
  m_PrefabParentObject: {fileID: 0}
  m_PrefabInternal: {fileID: 0}
  serializedVersion: 5
  m_Component:
  - component: {fileID: 738997240}
  - component: {fileID: 738997242}
  - component: {fileID: 738997241}
  m_Layer: 5
  m_Name: Logo
  m_TagString: Untagged
  m_Icon: {fileID: 0}
  m_NavMeshLayer: 0
  m_StaticEditorFlags: 0
  m_IsActive: 1
--- !u!224 &738997240
RectTransform:
  m_ObjectHideFlags: 0
  m_PrefabParentObject: {fileID: 0}
  m_PrefabInternal: {fileID: 0}
  m_GameObject: {fileID: 738997239}
  m_LocalRotation: {x: 0, y: 0, z: 0, w: 1}
  m_LocalPosition: {x: 0, y: 0, z: 0}
  m_LocalScale: {x: 1, y: 1, z: 1}
  m_Children: []
  m_Father: {fileID: 978515827}
  m_RootOrder: 1
  m_LocalEulerAnglesHint: {x: 0, y: 0, z: 0}
  m_AnchorMin: {x: 1, y: 0}
  m_AnchorMax: {x: 1, y: 0}
  m_AnchoredPosition: {x: -20, y: 10}
  m_SizeDelta: {x: 226.7, y: 107.6}
  m_Pivot: {x: 1, y: 0}
--- !u!114 &738997241
MonoBehaviour:
  m_ObjectHideFlags: 0
  m_PrefabParentObject: {fileID: 0}
  m_PrefabInternal: {fileID: 0}
  m_GameObject: {fileID: 738997239}
  m_Enabled: 1
  m_EditorHideFlags: 0
  m_Script: {fileID: -765806418, guid: f70555f144d8491a825f0804e09c671c, type: 3}
  m_Name: 
  m_EditorClassIdentifier: 
  m_Material: {fileID: 0}
  m_Color: {r: 1, g: 1, b: 1, a: 0.341}
  m_RaycastTarget: 1
  m_OnCullStateChanged:
    m_PersistentCalls:
      m_Calls: []
    m_TypeName: UnityEngine.UI.MaskableGraphic+CullStateChangedEvent, UnityEngine.UI,
      Version=1.0.0.0, Culture=neutral, PublicKeyToken=null
  m_Sprite: {fileID: 21300000, guid: cafbb0229cd09a44a929ded63df426cb, type: 3}
  m_Type: 0
  m_PreserveAspect: 1
  m_FillCenter: 1
  m_FillMethod: 4
  m_FillAmount: 1
  m_FillClockwise: 1
  m_FillOrigin: 0
--- !u!222 &738997242
CanvasRenderer:
  m_ObjectHideFlags: 0
  m_PrefabParentObject: {fileID: 0}
  m_PrefabInternal: {fileID: 0}
  m_GameObject: {fileID: 738997239}
--- !u!1 &791479071
GameObject:
  m_ObjectHideFlags: 0
  m_PrefabParentObject: {fileID: 0}
  m_PrefabInternal: {fileID: 0}
  serializedVersion: 5
  m_Component:
  - component: {fileID: 791479072}
  m_Layer: 0
  m_Name: GunMesh
  m_TagString: Untagged
  m_Icon: {fileID: 0}
  m_NavMeshLayer: 0
  m_StaticEditorFlags: 0
  m_IsActive: 1
--- !u!4 &791479072
Transform:
  m_ObjectHideFlags: 0
  m_PrefabParentObject: {fileID: 0}
  m_PrefabInternal: {fileID: 0}
  m_GameObject: {fileID: 791479071}
  m_LocalRotation: {x: -0.6861144, y: 0.028617283, z: -0.027029146, w: 0.726428}
  m_LocalPosition: {x: 0.0016874955, y: 0.0702059, z: 0.04241151}
  m_LocalScale: {x: 1, y: 1, z: 1}
  m_Children:
  - {fileID: 1679839614}
  m_Father: {fileID: 1257235577}
  m_RootOrder: 0
  m_LocalEulerAnglesHint: {x: -90, y: 0, z: 0}
--- !u!1 &934704043
GameObject:
  m_ObjectHideFlags: 0
  m_PrefabParentObject: {fileID: 0}
  m_PrefabInternal: {fileID: 0}
  serializedVersion: 5
  m_Component:
  - component: {fileID: 934704044}
  - component: {fileID: 934704046}
  - component: {fileID: 934704045}
  m_Layer: 5
  m_Name: Text
  m_TagString: Untagged
  m_Icon: {fileID: 0}
  m_NavMeshLayer: 0
  m_StaticEditorFlags: 0
  m_IsActive: 1
--- !u!224 &934704044
RectTransform:
  m_ObjectHideFlags: 0
  m_PrefabParentObject: {fileID: 0}
  m_PrefabInternal: {fileID: 0}
  m_GameObject: {fileID: 934704043}
  m_LocalRotation: {x: 0, y: 0, z: 0, w: 1}
  m_LocalPosition: {x: 0, y: 0, z: 0}
  m_LocalScale: {x: 1, y: 1, z: 1}
  m_Children: []
  m_Father: {fileID: 275818328}
  m_RootOrder: 0
  m_LocalEulerAnglesHint: {x: 0, y: 0, z: 0}
  m_AnchorMin: {x: 0, y: 0}
  m_AnchorMax: {x: 1, y: 1}
  m_AnchoredPosition: {x: 0, y: 0}
  m_SizeDelta: {x: 0, y: 0}
  m_Pivot: {x: 0.5, y: 0.5}
--- !u!114 &934704045
MonoBehaviour:
  m_ObjectHideFlags: 0
  m_PrefabParentObject: {fileID: 0}
  m_PrefabInternal: {fileID: 0}
  m_GameObject: {fileID: 934704043}
  m_Enabled: 1
  m_EditorHideFlags: 0
  m_Script: {fileID: 708705254, guid: f5f67c52d1564df4a8936ccd202a3bd8, type: 3}
  m_Name: 
  m_EditorClassIdentifier: 
  m_Material: {fileID: 0}
  m_Color: {r: 1, g: 1, b: 1, a: 1}
  m_RaycastTarget: 1
  m_OnCullStateChanged:
    m_PersistentCalls:
      m_Calls: []
    m_TypeName: UnityEngine.UI.MaskableGraphic+CullStateChangedEvent, UnityEngine.UI,
      Version=1.0.0.0, Culture=neutral, PublicKeyToken=null
  m_FontData:
    m_Font: {fileID: 12800000, guid: fae067962e5934395be31c8aba4a3455, type: 3}
    m_FontSize: 38
    m_FontStyle: 0
    m_BestFit: 0
    m_MinSize: 0
    m_MaxSize: 50
    m_Alignment: 4
    m_AlignByGeometry: 0
    m_RichText: 1
    m_HorizontalOverflow: 0
    m_VerticalOverflow: 0
    m_LineSpacing: 1
  m_Text: <
--- !u!222 &934704046
CanvasRenderer:
  m_ObjectHideFlags: 0
  m_PrefabParentObject: {fileID: 0}
  m_PrefabInternal: {fileID: 0}
  m_GameObject: {fileID: 934704043}
--- !u!1001 &939503414
Prefab:
  m_ObjectHideFlags: 0
  serializedVersion: 2
  m_Modification:
    m_TransformParent: {fileID: 791479072}
    m_Modifications:
    - target: {fileID: 400004, guid: 47509307932d1e140a2b4d9024d228e4, type: 3}
      propertyPath: m_LocalPosition.x
      value: 0.0164
      objectReference: {fileID: 0}
    - target: {fileID: 400004, guid: 47509307932d1e140a2b4d9024d228e4, type: 3}
      propertyPath: m_LocalPosition.y
      value: 0.0411
      objectReference: {fileID: 0}
    - target: {fileID: 400004, guid: 47509307932d1e140a2b4d9024d228e4, type: 3}
      propertyPath: m_LocalPosition.z
      value: -0.0783
      objectReference: {fileID: 0}
    - target: {fileID: 400004, guid: 47509307932d1e140a2b4d9024d228e4, type: 3}
      propertyPath: m_LocalRotation.x
      value: -0.03384882
      objectReference: {fileID: 0}
    - target: {fileID: 400004, guid: 47509307932d1e140a2b4d9024d228e4, type: 3}
      propertyPath: m_LocalRotation.y
      value: -0.035410363
      objectReference: {fileID: 0}
    - target: {fileID: 400004, guid: 47509307932d1e140a2b4d9024d228e4, type: 3}
      propertyPath: m_LocalRotation.z
      value: 0.0012000432
      objectReference: {fileID: 0}
    - target: {fileID: 400004, guid: 47509307932d1e140a2b4d9024d228e4, type: 3}
      propertyPath: m_LocalRotation.w
      value: 0.9987988
      objectReference: {fileID: 0}
    - target: {fileID: 400004, guid: 47509307932d1e140a2b4d9024d228e4, type: 3}
      propertyPath: m_RootOrder
      value: 0
      objectReference: {fileID: 0}
    - target: {fileID: 400004, guid: 47509307932d1e140a2b4d9024d228e4, type: 3}
      propertyPath: m_LocalEulerAnglesHint.x
      value: -3.8720002
      objectReference: {fileID: 0}
    - target: {fileID: 400004, guid: 47509307932d1e140a2b4d9024d228e4, type: 3}
      propertyPath: m_LocalEulerAnglesHint.y
      value: -4.07
      objectReference: {fileID: 0}
    - target: {fileID: 400004, guid: 47509307932d1e140a2b4d9024d228e4, type: 3}
      propertyPath: m_LocalEulerAnglesHint.z
      value: 0.275
      objectReference: {fileID: 0}
    - target: {fileID: 400004, guid: 47509307932d1e140a2b4d9024d228e4, type: 3}
      propertyPath: m_LocalScale.x
      value: 1.0441421
      objectReference: {fileID: 0}
    - target: {fileID: 400004, guid: 47509307932d1e140a2b4d9024d228e4, type: 3}
      propertyPath: m_LocalScale.y
      value: 1.0441422
      objectReference: {fileID: 0}
    - target: {fileID: 400004, guid: 47509307932d1e140a2b4d9024d228e4, type: 3}
      propertyPath: m_LocalScale.z
      value: 1.0441422
      objectReference: {fileID: 0}
    - target: {fileID: 2300002, guid: 47509307932d1e140a2b4d9024d228e4, type: 3}
      propertyPath: m_Materials.Array.data[0]
      value: 
      objectReference: {fileID: 10302, guid: 0000000000000000f000000000000000, type: 0}
    m_RemovedComponents: []
  m_ParentPrefab: {fileID: 100100000, guid: 47509307932d1e140a2b4d9024d228e4, type: 3}
  m_IsPrefabParent: 0
--- !u!1 &962148260
GameObject:
  m_ObjectHideFlags: 0
  m_PrefabParentObject: {fileID: 0}
  m_PrefabInternal: {fileID: 0}
  serializedVersion: 5
  m_Component:
  - component: {fileID: 962148261}
  - component: {fileID: 962148263}
  - component: {fileID: 962148262}
  m_Layer: 5
  m_Name: Text
  m_TagString: Untagged
  m_Icon: {fileID: 0}
  m_NavMeshLayer: 0
  m_StaticEditorFlags: 0
  m_IsActive: 1
--- !u!224 &962148261
RectTransform:
  m_ObjectHideFlags: 0
  m_PrefabParentObject: {fileID: 0}
  m_PrefabInternal: {fileID: 0}
  m_GameObject: {fileID: 962148260}
  m_LocalRotation: {x: 0, y: 0, z: 0, w: 1}
  m_LocalPosition: {x: 0, y: 0, z: 0}
  m_LocalScale: {x: 1, y: 1, z: 1}
  m_Children: []
  m_Father: {fileID: 1897646537}
  m_RootOrder: 0
  m_LocalEulerAnglesHint: {x: 0, y: 0, z: 0}
  m_AnchorMin: {x: 0, y: 0}
  m_AnchorMax: {x: 1, y: 1}
  m_AnchoredPosition: {x: 0, y: 0}
  m_SizeDelta: {x: 0, y: 0}
  m_Pivot: {x: 0.5, y: 0.5}
--- !u!114 &962148262
MonoBehaviour:
  m_ObjectHideFlags: 0
  m_PrefabParentObject: {fileID: 0}
  m_PrefabInternal: {fileID: 0}
  m_GameObject: {fileID: 962148260}
  m_Enabled: 1
  m_EditorHideFlags: 0
  m_Script: {fileID: 708705254, guid: f5f67c52d1564df4a8936ccd202a3bd8, type: 3}
  m_Name: 
  m_EditorClassIdentifier: 
  m_Material: {fileID: 0}
  m_Color: {r: 1, g: 1, b: 1, a: 1}
  m_RaycastTarget: 1
  m_OnCullStateChanged:
    m_PersistentCalls:
      m_Calls: []
    m_TypeName: UnityEngine.UI.MaskableGraphic+CullStateChangedEvent, UnityEngine.UI,
      Version=1.0.0.0, Culture=neutral, PublicKeyToken=null
  m_FontData:
    m_Font: {fileID: 12800000, guid: fae067962e5934395be31c8aba4a3455, type: 3}
    m_FontSize: 38
    m_FontStyle: 0
    m_BestFit: 0
    m_MinSize: 0
    m_MaxSize: 50
    m_Alignment: 4
    m_AlignByGeometry: 0
    m_RichText: 1
    m_HorizontalOverflow: 0
    m_VerticalOverflow: 0
    m_LineSpacing: 1
  m_Text: '>'
--- !u!222 &962148263
CanvasRenderer:
  m_ObjectHideFlags: 0
  m_PrefabParentObject: {fileID: 0}
  m_PrefabInternal: {fileID: 0}
  m_GameObject: {fileID: 962148260}
--- !u!1 &978515822
GameObject:
  m_ObjectHideFlags: 0
  m_PrefabParentObject: {fileID: 0}
  m_PrefabInternal: {fileID: 0}
  serializedVersion: 5
  m_Component:
  - component: {fileID: 978515827}
  - component: {fileID: 978515826}
  - component: {fileID: 978515825}
  - component: {fileID: 978515824}
  - component: {fileID: 978515823}
  m_Layer: 5
  m_Name: MenuCanvas
  m_TagString: Untagged
  m_Icon: {fileID: 0}
  m_NavMeshLayer: 0
  m_StaticEditorFlags: 0
  m_IsActive: 1
--- !u!114 &978515823
MonoBehaviour:
  m_ObjectHideFlags: 0
  m_PrefabParentObject: {fileID: 0}
  m_PrefabInternal: {fileID: 0}
  m_GameObject: {fileID: 978515822}
  m_Enabled: 1
  m_EditorHideFlags: 0
  m_Script: {fileID: 11500000, guid: 3b87f472a8687453eac1a8091330b6d5, type: 3}
  m_Name: 
  m_EditorClassIdentifier: 
  particleSystems:
  - title: Big Explosion
    description: "A light is attached to a separate emitter that has only 1 particle
      over its lifetime. This is done to separately control the intensity and colour
      of the light instead of attaching it directly to an existing particle system
      in the effect. \nFor the Debris smoke and fire trails, the sub-emitters use
      a new emission mode: \u2018Rate Over Distance\u2019. \nThe smoke uses a custom
      surface-shader. It uses an albedo and normal map. You are also able to control
      the colour and opacity based on particle colour and opacity which you can\u2019t
      do with the standard shader."
    isWeaponEffect: 0
    particleSystemGO: {fileID: 1000011797152326, guid: acf39d9f4addf294d93fa56fa373961b,
      type: 2}
    particlePosition: {x: 0, y: 2, z: 0}
    particleRotation: {x: -90, y: 0, z: 0}
  - title: Small Explosion
    description: "A light is attached to a separate emitter that has only 1 particle
      over its lifetime. This is done to separately control the intensity and colour
      of the light instead of attaching it directly to an existing particle system
      in the effect.\r\nThe smoke uses a custom surface-shader. It uses a albedo and
      normal map. You are also able to control the colour and opacity based on particle
      colour and opacity which you can\u2019t do with the standard shader."
    isWeaponEffect: 0
    particleSystemGO: {fileID: 1000013462590818, guid: ecdd96beb7f93494880c052dfccf9dc1,
      type: 2}
    particlePosition: {x: 0, y: 2, z: 0}
    particleRotation: {x: -90, y: 0, z: 0}
  - title: Plasma Explosion
    description: "The lightning particle effect is achieved by adding strong high
      frequency noise to particles and giving them trail renderers. A separate particle
      system controls the light which illuminates the smoke and environment. \nThere
      also is a shock wave particle using a mesh for the expanding sphere which helps
      to add a extra little punch to the explosion.\r"
    isWeaponEffect: 0
    particleSystemGO: {fileID: 1000011128802252, guid: 96730f8640590934eacb6f860058e7f9,
      type: 2}
    particlePosition: {x: 0, y: 1, z: 0}
    particleRotation: {x: -90, y: 0, z: 0}
  - title: Fire
    description: "Fire Particles use a sprite sheet of a simulated flame to give each
      particle some interesting movement. It makes use of \u2018Noise\u2019 to give
      the entire effect some life. The noise used in the particle system is a \u2018Curl\u2019
      noise, it is used to add some turbulence to the movement of the particles."
    isWeaponEffect: 0
    particleSystemGO: {fileID: 1126461894715624, guid: b9e167e31f640b34f87caab122fca598,
      type: 2}
    particlePosition: {x: 0, y: 0, z: 0}
    particleRotation: {x: 0, y: 0, z: 0}
  - title: Flame Thrower
    description: "Flames Emitter uses a curve on the \u2018Inherit Velocity\u2019
      tab. This makes sure the flames use the parent object's velocity to a degree
      over their lifetime. This makes the flames adhere to the parent for a while,
      giving a more pleasing trail of flames leaving the emission point while it is
      moving."
    isWeaponEffect: 0
    particleSystemGO: {fileID: 1000012118400646, guid: 3123da49cb81147489b444f2749aba47,
      type: 2}
    particlePosition: {x: -4, y: 2, z: -5}
    particleRotation: {x: 0, y: 45, z: 0}
  - title: Torch
    description: "The Torch has \u2018Inherit Velocity\u2019 enabled and uses a curve
      to give the flames a bit of a lag when the torch is moved around."
    isWeaponEffect: 0
    particleSystemGO: {fileID: 1000010545572958, guid: 3cdf614b79009ca49a2a5c117fb49c35,
      type: 2}
    particlePosition: {x: -1.5, y: 2, z: -6}
    particleRotation: {x: 0, y: 0, z: 0}
  - title: Smoke
    description: The particles have their pivot offset on the z-axis, so no matter
      how you look at them, they always receive light from the front even though the
      light is at 0,0,0 of the particle parent node.
    isWeaponEffect: 0
    particleSystemGO: {fileID: 1000012560919920, guid: 85a8865d1bf4a63478038fae23776de8,
      type: 2}
    particlePosition: {x: 0, y: 0, z: 0}
    particleRotation: {x: -90, y: 0, z: 0}
  - title: Sparks
    description: "This effect is based off a metal disc grinder. It is made up of
      multiple particle systems. All of the systems\u2019 render-mode are set to \u2018none\u2019
      and it uses the trails feature (new to Unity 5.5) for the spark lines, this
      gives a much better look than a stretched billboard would."
    isWeaponEffect: 0
    particleSystemGO: {fileID: 1000011945391522, guid: 78b71003e8b357d4bbf89c8b5e5e4f0e,
      type: 2}
    particlePosition: {x: -3, y: 3.5, z: -6}
    particleRotation: {x: 0, y: 120, z: 0}
  - title: Electrical Sparks
    description: "A electrical spark effect. It is made up of multiple particle systems.
      All of the systems\u2019 render-mode are set to \u2018none\u2019 and it uses
      the trails feature (new to Unity 5.5) for the spark lines, this gives a much
      better look than a stretched billboard would. It uses collision and gravity
      to make the particles bounce and lose some momentum when they hit the ground.\r"
    isWeaponEffect: 0
    particleSystemGO: {fileID: 1000011396044746, guid: 96b2ec0239d11fa4b9792311efceb8ed,
      type: 2}
    particlePosition: {x: -3, y: 3.5, z: -6}
    particleRotation: {x: 0, y: 120, z: 0}
  - title: RainEffect
    description: "This effect is made of a few particle systems with sub emitters.
      The raindrop uses a particle with render-mode set to \u2018none\u2019 and a
      trail. When the raindrop hits the ground plane it spawns the water ripple effect
      which is a small horizontal billboard which scales up over time to simulate
      a water ripple. \nAt the same time as the ripple a small impact splash is created
      which uses a mesh in a cone shape to simulate a circular splash."
    isWeaponEffect: 0
    particleSystemGO: {fileID: 1000010302070858, guid: d0c0b49979d372942ae5a964d9364111,
      type: 2}
    particlePosition: {x: 0, y: 0, z: 0}
    particleRotation: {x: 0, y: 0, z: 0}
  - title: Storm Clouds
    description: The storm clouds are showing off how particles can now be lit with
      multiple lights and make use of normal map textures. There is a particle system
      used for randomly spawning lights within the effect to simulate lightning going
      on in the clouds. The clouds use a custom surface-shader.
    isWeaponEffect: 0
    particleSystemGO: {fileID: 1000014264868206, guid: ca55dd9d7d291014a8b13aaf95318a3a,
      type: 2}
    particlePosition: {x: -1, y: 5, z: -4}
    particleRotation: {x: 0, y: 0, z: 0}
  - title: Water Drip
    description: 'This effect is plays with velocity and size over lifetime to simulate
      a water drop forming and then falling. When the drop hits the ground plane it
      spawns a water ripple effect which is a small horizontal billboard which scales
      up over time to simulate a water ripple.

      At the same time as the ripple a small impact splash is created which uses a
      mesh in a cone shape to simulate a circular splash.'
    isWeaponEffect: 0
    particleSystemGO: {fileID: 1000010923668584, guid: 3e8bbc11ff0ac7f4eb91aa277bc85c30,
      type: 2}
    particlePosition: {x: -2, y: 2.5, z: -7.5}
    particleRotation: {x: 0, y: 0, z: 0}
  - title: Waterfall
    description: This effect uses multiple particle systems. The stream of water uses
      the trail module with a stretched texture mode to give the illusion of falling
      water. The splash at the bottom uses a horizontal billboard that expands over
      time to look like water rippling out from the impact point. There are also some
      particle systems to simulate the water mist and spray which would be churned
      up where the waterfall hits the water surface below.
    isWeaponEffect: 0
    particleSystemGO: {fileID: 1000014033464604, guid: e0ea35e989dfcd043b42d7053b546abc,
      type: 2}
    particlePosition: {x: 0, y: -0.5, z: 5}
    particleRotation: {x: 0, y: 180, z: 0}
  - title: 'Hit Effect: Metal'
    description: "This effect uses particles with render-mode set to \u2018none\u2019
      and trails to simulate metal sparks flying off from the center of impact. I
      also has a small dust puff effect. There is a decal left behind of a bullet
      impacting and penetrating a metal plate."
    isWeaponEffect: 1
    particleSystemGO: {fileID: 1149210485932568, guid: 560a71b792ff85a4ba8f839081f9a379,
      type: 2}
    particlePosition: {x: -1.5, y: 2.5, z: -5}
    particleRotation: {x: -20, y: 0, z: 0}
  - title: 'Hit Effect: Wood'
    description: "A decal of a bullet hole going through wood is left behind. There
      is a small dust puff on impact as well as wood splinters which are spawned and
      spin away from the center of impact.\r"
    isWeaponEffect: 1
    particleSystemGO: {fileID: 1350958554473458, guid: b6d38b5165f9b6e49a8402118b5237a1,
      type: 2}
    particlePosition: {x: -1.5, y: 2.5, z: -5}
    particleRotation: {x: -20, y: 0, z: 0}
  - title: 'Hit Effect: Stone'
    description: A decal is left behind of a hole in a stone surface. A puff of dust
      is spawned, it uses stretched billboards to give it the look of shooting out
      quickly and then dissipating. There are also some small stone debris which fall
      down.
    isWeaponEffect: 1
    particleSystemGO: {fileID: 1884375188966482, guid: 6b4eed762f985a04bbc740b9da12e38d,
      type: 2}
    particlePosition: {x: -1.5, y: 2.5, z: -5}
    particleRotation: {x: -20, y: 0, z: 0}
  - title: 'Hit Effect: Sand'
    description: 'This uses a system with a stretched billboard to make it look like
      dust or sand is shot out quickly and then dissipates. '
    isWeaponEffect: 1
    particleSystemGO: {fileID: 1010471655720034, guid: ba43211ecc156be458125732de23ddb6,
      type: 2}
    particlePosition: {x: -1.5, y: 2.5, z: -5}
    particleRotation: {x: -20, y: 0, z: 0}
  - title: 'Hit Effect: Container'
    description: "This is simulating a water filled container. A stream of water is
      spawned at the impact point. It also uses the metal-impact effect for the initial
      bullet impact. \nThe stream is made by emitting many particles close together
      so it looks like they are connected, it uses the noise module to give the stream
      some waviness."
    isWeaponEffect: 1
    particleSystemGO: {fileID: 1139284636289806, guid: b3310980331fa134d82770127f640471,
      type: 2}
    particlePosition: {x: -1.5, y: 2.5, z: -5}
    particleRotation: {x: -20, y: 0, z: 0}
  - title: 'Hit Effect: Extinguish'
    description: "This is using Particles collisions script callback to simulate a
      water stream extinguishing a burning object.\r\nShoot the ball to create a water
      stream. If it touches the burning plank it will extinguish it."
    isWeaponEffect: 1
    particleSystemGO: {fileID: 1462754386875696, guid: ec68cf3d27ad1bf48a4b4d3af84e4ded,
      type: 2}
    particlePosition: {x: -1.5, y: 2.5, z: -5}
    particleRotation: {x: -20, y: 0, z: 0}
  - title: 'Hit Effect: Flesh'
    description: Blood effect simulating a bullet hitting flesh, based on movie squibs.
      It uses multiple particle systems. One effect has trails with a globular texture
      on it which are for blood streaks. Another is a random image of some blood blobs
      and another is a blood mist effect.
    isWeaponEffect: 1
    particleSystemGO: {fileID: 1556622962352786, guid: a7034287e2bd6a141ab896f71d0b1357,
      type: 2}
    particlePosition: {x: -1.5, y: 2.5, z: -5}
    particleRotation: {x: -20, y: 0, z: 0}
  - title: Rocket Trail
    description: "The rocket trail is lit by a light at the head of the trail where
      the rocket is, the smoke dissipates after a short time. This is done by using
      the noise parameter with a curve on controlling the strength of noise over lifetime.
      \r\nThe particles are emitted using rate over distance, this spawns a number
      of particles per unit of distance the particle system has moved.\r"
    isWeaponEffect: 0
    particleSystemGO: {fileID: 1000012600307132, guid: 20c0f7e297297fc468f9740f6bb08cb1,
      type: 2}
    particlePosition: {x: -15, y: 3.5, z: 0}
    particleRotation: {x: 0, y: 90, z: 0}
  - title: Dust Motes
    description: These particles spawn in a volume which should fill the space where
      you would like dust motes to be. They use use the noise module to make them
      float around with some turbulence.
    isWeaponEffect: 0
    particleSystemGO: {fileID: 1000012882023006, guid: 5ca4c580b3888314581688fa46fb142d,
      type: 2}
    particlePosition: {x: 0, y: 3.5, z: 0}
    particleRotation: {x: 0, y: 90, z: 0}
  - title: Sand Swirls
    description: This uses a billboard with scale over lifetime and the noise module
      to simulate a windy sand effect.
    isWeaponEffect: 0
    particleSystemGO: {fileID: 1000010715882420, guid: 14d81e2c407975245973a11cdfbeb902,
      type: 2}
    particlePosition: {x: -5, y: 1, z: -2}
    particleRotation: {x: 0, y: 90, z: 0}
  gunGameObject: {fileID: 1547811597}
  spawnLocation: {fileID: 1562416774}
  title: {fileID: 1385382695}
  description: {fileID: 190732357}
  navigationDetails: {fileID: 1227804492}
--- !u!114 &978515824
MonoBehaviour:
  m_ObjectHideFlags: 0
  m_PrefabParentObject: {fileID: 0}
  m_PrefabInternal: {fileID: 0}
  m_GameObject: {fileID: 978515822}
  m_Enabled: 1
  m_EditorHideFlags: 0
  m_Script: {fileID: 1301386320, guid: f5f67c52d1564df4a8936ccd202a3bd8, type: 3}
  m_Name: 
  m_EditorClassIdentifier: 
  m_IgnoreReversedGraphics: 1
  m_BlockingObjects: 0
  m_BlockingMask:
    serializedVersion: 2
    m_Bits: 4294967295
--- !u!114 &978515825
MonoBehaviour:
  m_ObjectHideFlags: 0
  m_PrefabParentObject: {fileID: 0}
  m_PrefabInternal: {fileID: 0}
  m_GameObject: {fileID: 978515822}
  m_Enabled: 1
  m_EditorHideFlags: 0
  m_Script: {fileID: 1980459831, guid: f5f67c52d1564df4a8936ccd202a3bd8, type: 3}
  m_Name: 
  m_EditorClassIdentifier: 
  m_UiScaleMode: 0
  m_ReferencePixelsPerUnit: 100
  m_ScaleFactor: 1
  m_ReferenceResolution: {x: 800, y: 600}
  m_ScreenMatchMode: 0
  m_MatchWidthOrHeight: 0
  m_PhysicalUnit: 3
  m_FallbackScreenDPI: 96
  m_DefaultSpriteDPI: 96
  m_DynamicPixelsPerUnit: 1
--- !u!223 &978515826
Canvas:
  m_ObjectHideFlags: 0
  m_PrefabParentObject: {fileID: 0}
  m_PrefabInternal: {fileID: 0}
  m_GameObject: {fileID: 978515822}
  m_Enabled: 1
  serializedVersion: 3
  m_RenderMode: 0
  m_Camera: {fileID: 0}
  m_PlaneDistance: 100
  m_PixelPerfect: 0
  m_ReceivesEvents: 1
  m_OverrideSorting: 0
  m_OverridePixelPerfect: 0
  m_SortingBucketNormalizedSize: 0
  m_AdditionalShaderChannelsFlag: 25
  m_SortingLayerID: 0
  m_SortingOrder: 0
  m_TargetDisplay: 0
--- !u!224 &978515827
RectTransform:
  m_ObjectHideFlags: 0
  m_PrefabParentObject: {fileID: 0}
  m_PrefabInternal: {fileID: 0}
  m_GameObject: {fileID: 978515822}
  m_LocalRotation: {x: 0, y: 0, z: 0, w: 1}
  m_LocalPosition: {x: 0, y: 0, z: 0}
  m_LocalScale: {x: 0, y: 0, z: 0}
  m_Children:
  - {fileID: 1077734314}
  - {fileID: 738997240}
  m_Father: {fileID: 0}
  m_RootOrder: 0
  m_LocalEulerAnglesHint: {x: 0, y: 0, z: 0}
  m_AnchorMin: {x: 0, y: 0}
  m_AnchorMax: {x: 0, y: 0}
  m_AnchoredPosition: {x: 0, y: 0}
  m_SizeDelta: {x: 0, y: 0}
  m_Pivot: {x: 0, y: 0}
--- !u!1 &1015100561
GameObject:
  m_ObjectHideFlags: 0
  m_PrefabParentObject: {fileID: 0}
  m_PrefabInternal: {fileID: 0}
  serializedVersion: 5
  m_Component:
  - component: {fileID: 1015100563}
  - component: {fileID: 1015100562}
  m_Layer: 0
  m_Name: Directional Light
  m_TagString: Untagged
  m_Icon: {fileID: 0}
  m_NavMeshLayer: 0
  m_StaticEditorFlags: 0
  m_IsActive: 1
--- !u!108 &1015100562
Light:
  m_ObjectHideFlags: 0
  m_PrefabParentObject: {fileID: 0}
  m_PrefabInternal: {fileID: 0}
  m_GameObject: {fileID: 1015100561}
  m_Enabled: 1
  serializedVersion: 8
  m_Type: 1
  m_Color: {r: 1, g: 1, b: 1, a: 1}
  m_Intensity: 1
  m_Range: 10
  m_SpotAngle: 30
  m_CookieSize: 10
  m_Shadows:
    m_Type: 0
    m_Resolution: -1
    m_CustomResolution: -1
    m_Strength: 1
    m_Bias: 0.05
    m_NormalBias: 0.4
    m_NearPlane: 0.2
  m_Cookie: {fileID: 0}
  m_DrawHalo: 0
  m_Flare: {fileID: 0}
  m_RenderMode: 0
  m_CullingMask:
    serializedVersion: 2
    m_Bits: 4294967295
  m_Lightmapping: 4
  m_AreaSize: {x: 1, y: 1}
  m_BounceIntensity: 1
  m_ColorTemperature: 6570
  m_UseColorTemperature: 0
  m_ShadowRadius: 0
  m_ShadowAngle: 0
--- !u!4 &1015100563
Transform:
  m_ObjectHideFlags: 0
  m_PrefabParentObject: {fileID: 0}
  m_PrefabInternal: {fileID: 0}
  m_GameObject: {fileID: 1015100561}
  m_LocalRotation: {x: 0.17051788, y: -0.41534933, z: 0.8906495, w: 0.07177782}
  m_LocalPosition: {x: 0, y: 3, z: 0}
  m_LocalScale: {x: 1, y: 1, z: 1}
  m_Children: []
  m_Father: {fileID: 1607826290}
  m_RootOrder: 0
  m_LocalEulerAnglesHint: {x: 49.848003, y: 22.246, z: 181.226}
--- !u!1 &1033700476
GameObject:
  m_ObjectHideFlags: 0
  m_PrefabParentObject: {fileID: 0}
  m_PrefabInternal: {fileID: 0}
  serializedVersion: 5
  m_Component:
  - component: {fileID: 1033700481}
  - component: {fileID: 1033700480}
  - component: {fileID: 1033700477}
  - component: {fileID: 1033700486}
  - component: {fileID: 1033700479}
  - component: {fileID: 1033700478}
  m_Layer: 0
  m_Name: MainCamera
  m_TagString: MainCamera
  m_Icon: {fileID: 0}
  m_NavMeshLayer: 0
  m_StaticEditorFlags: 0
  m_IsActive: 1
--- !u!81 &1033700477
AudioListener:
  m_ObjectHideFlags: 0
  m_PrefabParentObject: {fileID: 0}
  m_PrefabInternal: {fileID: 0}
  m_GameObject: {fileID: 1033700476}
  m_Enabled: 1
--- !u!114 &1033700478
MonoBehaviour:
  m_ObjectHideFlags: 0
  m_PrefabParentObject: {fileID: 0}
  m_PrefabInternal: {fileID: 0}
  m_GameObject: {fileID: 1033700476}
  m_Enabled: 1
  m_EditorHideFlags: 0
  m_Script: {fileID: 11500000, guid: 8b9a305e18de0c04dbd257a21cd47087, type: 3}
  m_Name: 
  m_EditorClassIdentifier: 
  sharedProfile: {fileID: 0}
  isGlobal: 1
  blendDistance: 0
  weight: 1
  priority: 0
--- !u!114 &1033700479
MonoBehaviour:
  m_ObjectHideFlags: 0
  m_PrefabParentObject: {fileID: 0}
  m_PrefabInternal: {fileID: 0}
  m_GameObject: {fileID: 1033700476}
  m_Enabled: 1
  m_EditorHideFlags: 0
  m_Script: {fileID: 11500000, guid: 948f4100a11a5c24981795d21301da5c, type: 3}
  m_Name: 
  m_EditorClassIdentifier: 
  volumeTrigger: {fileID: 1033700481}
  volumeLayer:
    serializedVersion: 2
    m_Bits: 4294967295
  stopNaNPropagation: 1
  antialiasingMode: 3
  temporalAntialiasing:
    jitterSpread: 0.75
    sharpness: 0.25
    stationaryBlending: 0.95
    motionBlending: 0.85
  fastApproximateAntialiasing:
    mobileOptimized: 0
    keepAlpha: 0
  fog:
    enabled: 1
    excludeSkybox: 1
  debugLayer:
    lightMeter:
      width: 512
      height: 256
      showCurves: 1
    histogram:
      width: 512
      height: 256
      channel: 3
    waveform:
      exposure: 0.12
      height: 256
    vectorscope:
      size: 256
      exposure: 0.12
    overlaySettings:
      motionColorIntensity: 4
      motionGridSize: 64
      colorBlindnessType: 0
      colorBlindnessStrength: 1
  m_Resources: {fileID: 11400000, guid: d82512f9c8e5d4a4d938b575d47f88d4, type: 2}
  m_ShowToolkit: 0
  m_ShowCustomSorter: 0
  breakBeforeColorGrading: 0
  m_BeforeTransparentBundles: []
  m_BeforeStackBundles: []
  m_AfterStackBundles: []
--- !u!20 &1033700480
Camera:
  m_ObjectHideFlags: 0
  m_PrefabParentObject: {fileID: 0}
  m_PrefabInternal: {fileID: 0}
  m_GameObject: {fileID: 1033700476}
  m_Enabled: 1
  serializedVersion: 2
  m_ClearFlags: 1
  m_BackGroundColor: {r: 0.039215688, g: 0.039215688, b: 0.043137256, a: 0}
  m_NormalizedViewPortRect:
    serializedVersion: 2
    x: 0
    y: 0
    width: 1
    height: 1
  near clip plane: 0.01
  far clip plane: 1000
  field of view: 60
  orthographic: 0
  orthographic size: 5
  m_Depth: -1
  m_CullingMask:
    serializedVersion: 2
    m_Bits: 4294967295
  m_RenderingPath: -1
  m_TargetTexture: {fileID: 0}
  m_TargetDisplay: 0
  m_TargetEye: 3
  m_HDR: 1
  m_AllowMSAA: 0
  m_AllowDynamicResolution: 0
  m_ForceIntoRT: 1
  m_OcclusionCulling: 1
  m_StereoConvergence: 10
  m_StereoSeparation: 0.022
--- !u!4 &1033700481
Transform:
  m_ObjectHideFlags: 0
  m_PrefabParentObject: {fileID: 0}
  m_PrefabInternal: {fileID: 0}
  m_GameObject: {fileID: 1033700476}
  m_LocalRotation: {x: -0, y: -0, z: -0, w: 1}
  m_LocalPosition: {x: 0, y: 3.63, z: 0}
  m_LocalScale: {x: 1, y: 1, z: 1}
  m_Children:
  - {fileID: 1547811598}
  m_Father: {fileID: 1724755372}
  m_RootOrder: 0
  m_LocalEulerAnglesHint: {x: 0, y: 0, z: 0}
--- !u!82 &1033700486
AudioSource:
  m_ObjectHideFlags: 0
  m_PrefabParentObject: {fileID: 0}
  m_PrefabInternal: {fileID: 0}
  m_GameObject: {fileID: 1033700476}
  m_Enabled: 1
  serializedVersion: 4
  OutputAudioMixerGroup: {fileID: 0}
  m_audioClip: {fileID: 0}
  m_PlayOnAwake: 1
  m_Volume: 1
  m_Pitch: 1
  Loop: 0
  Mute: 0
  Spatialize: 0
  SpatializePostEffects: 0
  Priority: 128
  DopplerLevel: 1
  MinDistance: 1
  MaxDistance: 500
  Pan2D: 0
  rolloffMode: 0
  BypassEffects: 0
  BypassListenerEffects: 0
  BypassReverbZones: 0
  rolloffCustomCurve:
    serializedVersion: 2
    m_Curve:
    - serializedVersion: 3
      time: 0
      value: 1
      inSlope: 0
      outSlope: 0
      tangentMode: 0
      weightedMode: 0
      inWeight: 0.33333334
      outWeight: 0.33333334
    - serializedVersion: 3
      time: 1
      value: 0
      inSlope: 0
      outSlope: 0
      tangentMode: 0
      weightedMode: 0
      inWeight: 0.33333334
      outWeight: 0.33333334
    m_PreInfinity: 2
    m_PostInfinity: 2
    m_RotationOrder: 4
  panLevelCustomCurve:
    serializedVersion: 2
    m_Curve:
    - serializedVersion: 3
      time: 0
      value: 0
      inSlope: 0
      outSlope: 0
      tangentMode: 0
      weightedMode: 0
      inWeight: 0.33333334
      outWeight: 0.33333334
    m_PreInfinity: 2
    m_PostInfinity: 2
    m_RotationOrder: 0
  spreadCustomCurve:
    serializedVersion: 2
    m_Curve:
    - serializedVersion: 3
      time: 0
      value: 0
      inSlope: 0
      outSlope: 0
      tangentMode: 0
      weightedMode: 0
      inWeight: 0.33333334
      outWeight: 0.33333334
    m_PreInfinity: 2
    m_PostInfinity: 2
    m_RotationOrder: 4
  reverbZoneMixCustomCurve:
    serializedVersion: 2
    m_Curve:
    - serializedVersion: 3
      time: 0
      value: 1
      inSlope: 0
      outSlope: 0
      tangentMode: 0
      weightedMode: 0
      inWeight: 0.33333334
      outWeight: 0.33333334
    m_PreInfinity: 2
    m_PostInfinity: 2
    m_RotationOrder: 0
--- !u!1 &1077734313
GameObject:
  m_ObjectHideFlags: 0
  m_PrefabParentObject: {fileID: 0}
  m_PrefabInternal: {fileID: 0}
  serializedVersion: 5
  m_Component:
  - component: {fileID: 1077734314}
  - component: {fileID: 1077734316}
  - component: {fileID: 1077734315}
  m_Layer: 5
  m_Name: BackgroundImage
  m_TagString: Untagged
  m_Icon: {fileID: 0}
  m_NavMeshLayer: 0
  m_StaticEditorFlags: 0
  m_IsActive: 1
--- !u!224 &1077734314
RectTransform:
  m_ObjectHideFlags: 0
  m_PrefabParentObject: {fileID: 0}
  m_PrefabInternal: {fileID: 0}
  m_GameObject: {fileID: 1077734313}
  m_LocalRotation: {x: 0, y: 0, z: 0, w: 1}
  m_LocalPosition: {x: 0, y: 0, z: 0}
  m_LocalScale: {x: 1, y: 1, z: 1}
  m_Children:
  - {fileID: 2136418208}
  - {fileID: 1625577195}
  m_Father: {fileID: 978515827}
  m_RootOrder: 0
  m_LocalEulerAnglesHint: {x: 0, y: 0, z: 0}
  m_AnchorMin: {x: 0, y: 0}
  m_AnchorMax: {x: 0, y: 1}
  m_AnchoredPosition: {x: 0, y: 0}
  m_SizeDelta: {x: 400, y: 0}
  m_Pivot: {x: 0, y: 0.5}
--- !u!114 &1077734315
MonoBehaviour:
  m_ObjectHideFlags: 0
  m_PrefabParentObject: {fileID: 0}
  m_PrefabInternal: {fileID: 0}
  m_GameObject: {fileID: 1077734313}
  m_Enabled: 1
  m_EditorHideFlags: 0
  m_Script: {fileID: -765806418, guid: f5f67c52d1564df4a8936ccd202a3bd8, type: 3}
  m_Name: 
  m_EditorClassIdentifier: 
  m_Material: {fileID: 0}
  m_Color: {r: 0, g: 0, b: 0, a: 0.753}
  m_RaycastTarget: 1
  m_OnCullStateChanged:
    m_PersistentCalls:
      m_Calls: []
    m_TypeName: UnityEngine.UI.MaskableGraphic+CullStateChangedEvent, UnityEngine.UI,
      Version=1.0.0.0, Culture=neutral, PublicKeyToken=null
  m_Sprite: {fileID: 0}
  m_Type: 0
  m_PreserveAspect: 0
  m_FillCenter: 1
  m_FillMethod: 4
  m_FillAmount: 1
  m_FillClockwise: 1
  m_FillOrigin: 0
--- !u!222 &1077734316
CanvasRenderer:
  m_ObjectHideFlags: 0
  m_PrefabParentObject: {fileID: 0}
  m_PrefabInternal: {fileID: 0}
  m_GameObject: {fileID: 1077734313}
--- !u!4 &1087667250 stripped
Transform:
  m_PrefabParentObject: {fileID: 4000011227296186, guid: 9defeac88977c0d448aa4541073ee9e4,
    type: 2}
  m_PrefabInternal: {fileID: 2047192111}
--- !u!198 &1087667252 stripped
ParticleSystem:
  m_PrefabParentObject: {fileID: 198000012944515248, guid: 9defeac88977c0d448aa4541073ee9e4,
    type: 2}
  m_PrefabInternal: {fileID: 2047192111}
--- !u!1 &1185268623
GameObject:
  m_ObjectHideFlags: 0
  m_PrefabParentObject: {fileID: 0}
  m_PrefabInternal: {fileID: 0}
  serializedVersion: 5
  m_Component:
  - component: {fileID: 1185268627}
  - component: {fileID: 1185268626}
  - component: {fileID: 1185268625}
  - component: {fileID: 1185268624}
  m_Layer: 9
  m_Name: Plane
  m_TagString: Untagged
  m_Icon: {fileID: 0}
  m_NavMeshLayer: 0
  m_StaticEditorFlags: 0
  m_IsActive: 1
--- !u!23 &1185268624
MeshRenderer:
  m_ObjectHideFlags: 0
  m_PrefabParentObject: {fileID: 0}
  m_PrefabInternal: {fileID: 0}
  m_GameObject: {fileID: 1185268623}
  m_Enabled: 0
  m_CastShadows: 1
  m_ReceiveShadows: 1
  m_DynamicOccludee: 1
  m_MotionVectors: 1
  m_LightProbeUsage: 1
  m_ReflectionProbeUsage: 1
  m_RenderingLayerMask: 4294967295
  m_Materials:
  - {fileID: 2100000, guid: 2062b6d0a7a2d4f46b4689198aedadd9, type: 2}
  m_StaticBatchInfo:
    firstSubMesh: 0
    subMeshCount: 0
  m_StaticBatchRoot: {fileID: 0}
  m_ProbeAnchor: {fileID: 0}
  m_LightProbeVolumeOverride: {fileID: 0}
  m_ScaleInLightmap: 1
  m_PreserveUVs: 1
  m_IgnoreNormalsForChartDetection: 0
  m_ImportantGI: 0
  m_StitchLightmapSeams: 0
  m_SelectedEditorRenderState: 3
  m_MinimumChartSize: 4
  m_AutoUVMaxDistance: 0.5
  m_AutoUVMaxAngle: 89
  m_LightmapParameters: {fileID: 0}
  m_SortingLayerID: 0
  m_SortingLayer: 0
  m_SortingOrder: 0
--- !u!64 &1185268625
MeshCollider:
  m_ObjectHideFlags: 0
  m_PrefabParentObject: {fileID: 0}
  m_PrefabInternal: {fileID: 0}
  m_GameObject: {fileID: 1185268623}
  m_Material: {fileID: 0}
  m_IsTrigger: 0
  m_Enabled: 1
  serializedVersion: 3
  m_Convex: 0
  m_CookingOptions: 14
  m_SkinWidth: 0.01
  m_Mesh: {fileID: 10209, guid: 0000000000000000e000000000000000, type: 0}
--- !u!33 &1185268626
MeshFilter:
  m_ObjectHideFlags: 0
  m_PrefabParentObject: {fileID: 0}
  m_PrefabInternal: {fileID: 0}
  m_GameObject: {fileID: 1185268623}
  m_Mesh: {fileID: 10209, guid: 0000000000000000e000000000000000, type: 0}
--- !u!4 &1185268627
Transform:
  m_ObjectHideFlags: 0
  m_PrefabParentObject: {fileID: 0}
  m_PrefabInternal: {fileID: 0}
  m_GameObject: {fileID: 1185268623}
  m_LocalRotation: {x: -0, y: -0, z: -0, w: 1}
  m_LocalPosition: {x: 0, y: 0, z: 10.6}
  m_LocalScale: {x: 6.6942015, y: 6.6942015, z: 6.6942015}
  m_Children: []
  m_Father: {fileID: 1749532737}
  m_RootOrder: 0
  m_LocalEulerAnglesHint: {x: 0, y: 0, z: 0}
--- !u!1 &1227804491
GameObject:
  m_ObjectHideFlags: 0
  m_PrefabParentObject: {fileID: 0}
  m_PrefabInternal: {fileID: 0}
  serializedVersion: 5
  m_Component:
  - component: {fileID: 1227804494}
  - component: {fileID: 1227804493}
  - component: {fileID: 1227804492}
  m_Layer: 5
  m_Name: NumberText
  m_TagString: Untagged
  m_Icon: {fileID: 0}
  m_NavMeshLayer: 0
  m_StaticEditorFlags: 0
  m_IsActive: 1
--- !u!114 &1227804492
MonoBehaviour:
  m_ObjectHideFlags: 0
  m_PrefabParentObject: {fileID: 0}
  m_PrefabInternal: {fileID: 0}
  m_GameObject: {fileID: 1227804491}
  m_Enabled: 1
  m_EditorHideFlags: 0
  m_Script: {fileID: 708705254, guid: f5f67c52d1564df4a8936ccd202a3bd8, type: 3}
  m_Name: 
  m_EditorClassIdentifier: 
  m_Material: {fileID: 0}
  m_Color: {r: 1, g: 1, b: 1, a: 1}
  m_RaycastTarget: 1
  m_OnCullStateChanged:
    m_PersistentCalls:
      m_Calls: []
    m_TypeName: UnityEngine.UI.MaskableGraphic+CullStateChangedEvent, UnityEngine.UI,
      Version=1.0.0.0, Culture=neutral, PublicKeyToken=null
  m_FontData:
    m_Font: {fileID: 12800000, guid: cd25d80d03a864fdd90534b28f15208a, type: 3}
    m_FontSize: 18
    m_FontStyle: 0
    m_BestFit: 0
    m_MinSize: 1
    m_MaxSize: 40
    m_Alignment: 4
    m_AlignByGeometry: 0
    m_RichText: 1
    m_HorizontalOverflow: 0
    m_VerticalOverflow: 0
    m_LineSpacing: 1
  m_Text: 'Title

'
--- !u!222 &1227804493
CanvasRenderer:
  m_ObjectHideFlags: 0
  m_PrefabParentObject: {fileID: 0}
  m_PrefabInternal: {fileID: 0}
  m_GameObject: {fileID: 1227804491}
--- !u!224 &1227804494
RectTransform:
  m_ObjectHideFlags: 0
  m_PrefabParentObject: {fileID: 0}
  m_PrefabInternal: {fileID: 0}
  m_GameObject: {fileID: 1227804491}
  m_LocalRotation: {x: -0, y: -0, z: -0, w: 1}
  m_LocalPosition: {x: 0, y: 0, z: 0}
  m_LocalScale: {x: 1, y: 1, z: 1}
  m_Children: []
  m_Father: {fileID: 1625577195}
  m_RootOrder: 1
  m_LocalEulerAnglesHint: {x: 0, y: 0, z: 0}
  m_AnchorMin: {x: 0, y: 0}
  m_AnchorMax: {x: 0, y: 0}
  m_AnchoredPosition: {x: 0, y: 0}
  m_SizeDelta: {x: 0, y: 0}
  m_Pivot: {x: 0, y: 1}
--- !u!1 &1257235576
GameObject:
  m_ObjectHideFlags: 0
  m_PrefabParentObject: {fileID: 0}
  m_PrefabInternal: {fileID: 0}
  serializedVersion: 5
  m_Component:
  - component: {fileID: 1257235577}
  - component: {fileID: 1257235579}
  - component: {fileID: 1257235578}
  m_Layer: 0
  m_Name: GunShoot
  m_TagString: Untagged
  m_Icon: {fileID: 0}
  m_NavMeshLayer: 0
  m_StaticEditorFlags: 0
  m_IsActive: 1
--- !u!4 &1257235577
Transform:
  m_ObjectHideFlags: 0
  m_PrefabParentObject: {fileID: 0}
  m_PrefabInternal: {fileID: 0}
  m_GameObject: {fileID: 1257235576}
  m_LocalRotation: {x: 0.7071068, y: 0, z: 0, w: 0.7071068}
  m_LocalPosition: {x: -0.003, y: 0.003, z: 0.453}
  m_LocalScale: {x: 1, y: 1, z: 1}
  m_Children:
  - {fileID: 791479072}
  - {fileID: 133599303}
  m_Father: {fileID: 1547811598}
  m_RootOrder: 0
  m_LocalEulerAnglesHint: {x: 90, y: 0, z: 0}
--- !u!95 &1257235578
Animator:
  serializedVersion: 3
  m_ObjectHideFlags: 0
  m_PrefabParentObject: {fileID: 0}
  m_PrefabInternal: {fileID: 0}
  m_GameObject: {fileID: 1257235576}
  m_Enabled: 1
  m_Avatar: {fileID: 0}
  m_Controller: {fileID: 9100000, guid: 2be2206e6d3865742a99fd2f946e6378, type: 2}
  m_CullingMode: 0
  m_UpdateMode: 0
  m_ApplyRootMotion: 0
  m_LinearVelocityBlending: 0
  m_WarningMessage: 
  m_HasTransformHierarchy: 1
  m_AllowConstantClipSamplingOptimization: 1
  m_KeepAnimatorControllerStateOnDisable: 0
--- !u!114 &1257235579
MonoBehaviour:
  m_ObjectHideFlags: 0
  m_PrefabParentObject: {fileID: 0}
  m_PrefabInternal: {fileID: 0}
  m_GameObject: {fileID: 1257235576}
  m_Enabled: 1
  m_EditorHideFlags: 0
  m_Script: {fileID: 11500000, guid: 422d8644426474cfd8b793ce3c107314, type: 3}
  m_Name: 
  m_EditorClassIdentifier: 
  fireRate: 0.25
  weaponRange: 20
  gunEnd: {fileID: 1678112879}
  muzzleFlash: {fileID: 1087667252}
  cartridgeEjection: {fileID: 133599305}
  metalHitEffect: {fileID: 1000010355441670, guid: 02a509a7fa70ed740ba4197e20c5d32d,
    type: 2}
  sandHitEffect: {fileID: 1000012142692022, guid: a475880e7da0e9548aa05cb7933752cd,
    type: 2}
  stoneHitEffect: {fileID: 1000010844420130, guid: 4edabb1c0dde62743b137378c7d22980,
    type: 2}
  waterLeakEffect: {fileID: 1000011439201316, guid: a60a75fdadab5de428529a5b8ef0426a,
    type: 2}
  waterLeakExtinguishEffect: {fileID: 1277954026192068, guid: 8c0568c457f38824d8649f26f2363927,
    type: 2}
  fleshHitEffects:
  - {fileID: 1000013169864706, guid: e5a3d6da48298a0458c1990f58c27069, type: 2}
  - {fileID: 1000010191825552, guid: 83e55d3418297934fab882559d009285, type: 2}
  woodHitEffect: {fileID: 1000011190285628, guid: beb3acff7ab73944fb8f470f24d74ed3,
    type: 2}
--- !u!1 &1385382692
GameObject:
  m_ObjectHideFlags: 0
  m_PrefabParentObject: {fileID: 0}
  m_PrefabInternal: {fileID: 0}
  serializedVersion: 5
  m_Component:
  - component: {fileID: 1385382693}
  - component: {fileID: 1385382694}
  - component: {fileID: 1385382695}
  m_Layer: 5
  m_Name: TitleText
  m_TagString: Untagged
  m_Icon: {fileID: 0}
  m_NavMeshLayer: 0
  m_StaticEditorFlags: 0
  m_IsActive: 1
--- !u!224 &1385382693
RectTransform:
  m_ObjectHideFlags: 0
  m_PrefabParentObject: {fileID: 0}
  m_PrefabInternal: {fileID: 0}
  m_GameObject: {fileID: 1385382692}
  m_LocalRotation: {x: -0, y: -0, z: -0, w: 1}
  m_LocalPosition: {x: 0, y: 0, z: 0}
  m_LocalScale: {x: 1, y: 1, z: 1}
  m_Children: []
  m_Father: {fileID: 2136418208}
  m_RootOrder: 0
  m_LocalEulerAnglesHint: {x: 0, y: 0, z: 0}
  m_AnchorMin: {x: 0.05, y: 0.8}
  m_AnchorMax: {x: 0.95, y: 0.95}
  m_AnchoredPosition: {x: 0, y: 0}
  m_SizeDelta: {x: 0, y: 0}
  m_Pivot: {x: 0, y: 1}
--- !u!222 &1385382694
CanvasRenderer:
  m_ObjectHideFlags: 0
  m_PrefabParentObject: {fileID: 0}
  m_PrefabInternal: {fileID: 0}
  m_GameObject: {fileID: 1385382692}
--- !u!114 &1385382695
MonoBehaviour:
  m_ObjectHideFlags: 0
  m_PrefabParentObject: {fileID: 0}
  m_PrefabInternal: {fileID: 0}
  m_GameObject: {fileID: 1385382692}
  m_Enabled: 1
  m_EditorHideFlags: 0
  m_Script: {fileID: 708705254, guid: f5f67c52d1564df4a8936ccd202a3bd8, type: 3}
  m_Name: 
  m_EditorClassIdentifier: 
  m_Material: {fileID: 0}
  m_Color: {r: 1, g: 1, b: 1, a: 1}
  m_RaycastTarget: 1
  m_OnCullStateChanged:
    m_PersistentCalls:
      m_Calls: []
    m_TypeName: UnityEngine.UI.MaskableGraphic+CullStateChangedEvent, UnityEngine.UI,
      Version=1.0.0.0, Culture=neutral, PublicKeyToken=null
  m_FontData:
    m_Font: {fileID: 12800000, guid: fae067962e5934395be31c8aba4a3455, type: 3}
    m_FontSize: 32
    m_FontStyle: 0
    m_BestFit: 0
    m_MinSize: 3
    m_MaxSize: 40
    m_Alignment: 0
    m_AlignByGeometry: 0
    m_RichText: 1
    m_HorizontalOverflow: 0
    m_VerticalOverflow: 0
    m_LineSpacing: 1
  m_Text: TITLES IN CAPS
--- !u!1 &1547811597
GameObject:
  m_ObjectHideFlags: 0
  m_PrefabParentObject: {fileID: 0}
  m_PrefabInternal: {fileID: 0}
  serializedVersion: 5
  m_Component:
  - component: {fileID: 1547811598}
  - component: {fileID: 1547811599}
  m_Layer: 0
  m_Name: GunAim
  m_TagString: Untagged
  m_Icon: {fileID: 0}
  m_NavMeshLayer: 0
  m_StaticEditorFlags: 0
  m_IsActive: 1
--- !u!4 &1547811598
Transform:
  m_ObjectHideFlags: 0
  m_PrefabParentObject: {fileID: 0}
  m_PrefabInternal: {fileID: 0}
  m_GameObject: {fileID: 1547811597}
  m_LocalRotation: {x: -0, y: -0, z: -0, w: 1}
  m_LocalPosition: {x: 0.239, y: -0.125, z: 0}
  m_LocalScale: {x: 1, y: 1, z: 1}
  m_Children:
  - {fileID: 1257235577}
  - {fileID: 1678112879}
  m_Father: {fileID: 1033700481}
  m_RootOrder: 0
  m_LocalEulerAnglesHint: {x: 0, y: 0, z: 0}
--- !u!114 &1547811599
MonoBehaviour:
  m_ObjectHideFlags: 0
  m_PrefabParentObject: {fileID: 0}
  m_PrefabInternal: {fileID: 0}
  m_GameObject: {fileID: 1547811597}
  m_Enabled: 1
  m_EditorHideFlags: 0
  m_Script: {fileID: 11500000, guid: c63d71560c10e473ebc409185edd2c8c, type: 3}
  m_Name: 
  m_EditorClassIdentifier: 
  borderLeft: 400
  borderRight: 0
  borderTop: 0
  borderBottom: 0
--- !u!1 &1562416771
GameObject:
  m_ObjectHideFlags: 0
  m_PrefabParentObject: {fileID: 0}
  m_PrefabInternal: {fileID: 0}
  serializedVersion: 5
  m_Component:
  - component: {fileID: 1562416774}
  m_Layer: 0
  m_Name: SpawnLocation
  m_TagString: Untagged
  m_Icon: {fileID: 0}
  m_NavMeshLayer: 0
  m_StaticEditorFlags: 0
  m_IsActive: 1
--- !u!4 &1562416774
Transform:
  m_ObjectHideFlags: 0
  m_PrefabParentObject: {fileID: 0}
  m_PrefabInternal: {fileID: 0}
  m_GameObject: {fileID: 1562416771}
  m_LocalRotation: {x: -0, y: -0, z: -0, w: 1}
  m_LocalPosition: {x: 2, y: 0, z: 10}
  m_LocalScale: {x: 0.1, y: 0.1, z: 0.1}
  m_Children: []
  m_Father: {fileID: 0}
  m_RootOrder: 4
  m_LocalEulerAnglesHint: {x: 0, y: 0, z: 0}
--- !u!1 &1607826289
GameObject:
  m_ObjectHideFlags: 0
  m_PrefabParentObject: {fileID: 0}
  m_PrefabInternal: {fileID: 0}
  serializedVersion: 5
  m_Component:
  - component: {fileID: 1607826290}
  m_Layer: 0
  m_Name: Lights
  m_TagString: Untagged
  m_Icon: {fileID: 0}
  m_NavMeshLayer: 0
  m_StaticEditorFlags: 0
  m_IsActive: 1
--- !u!4 &1607826290
Transform:
  m_ObjectHideFlags: 0
  m_PrefabParentObject: {fileID: 0}
  m_PrefabInternal: {fileID: 0}
  m_GameObject: {fileID: 1607826289}
  m_LocalRotation: {x: 0, y: 0, z: 0, w: 1}
  m_LocalPosition: {x: 0, y: 0, z: 0}
  m_LocalScale: {x: 1, y: 1, z: 1}
  m_Children:
  - {fileID: 1015100563}
  m_Father: {fileID: 0}
  m_RootOrder: 3
  m_LocalEulerAnglesHint: {x: 0, y: 0, z: 0}
--- !u!1 &1625577194
GameObject:
  m_ObjectHideFlags: 0
  m_PrefabParentObject: {fileID: 0}
  m_PrefabInternal: {fileID: 0}
  serializedVersion: 5
  m_Component:
  - component: {fileID: 1625577195}
  - component: {fileID: 1625577196}
  m_Layer: 5
  m_Name: Navigation
  m_TagString: Untagged
  m_Icon: {fileID: 0}
  m_NavMeshLayer: 0
  m_StaticEditorFlags: 0
  m_IsActive: 1
--- !u!224 &1625577195
RectTransform:
  m_ObjectHideFlags: 0
  m_PrefabParentObject: {fileID: 0}
  m_PrefabInternal: {fileID: 0}
  m_GameObject: {fileID: 1625577194}
  m_LocalRotation: {x: -0, y: -0, z: -0, w: 1}
  m_LocalPosition: {x: 0, y: 0, z: 0}
  m_LocalScale: {x: 1, y: 1, z: 1}
  m_Children:
  - {fileID: 275818328}
  - {fileID: 1227804494}
  - {fileID: 1897646537}
  m_Father: {fileID: 1077734314}
  m_RootOrder: 1
  m_LocalEulerAnglesHint: {x: 0, y: 0, z: 0}
  m_AnchorMin: {x: 0, y: 0}
  m_AnchorMax: {x: 1, y: 0.25}
  m_AnchoredPosition: {x: 0, y: 0}
  m_SizeDelta: {x: 0, y: 0}
  m_Pivot: {x: 0.5, y: 0.5}
--- !u!114 &1625577196
MonoBehaviour:
  m_ObjectHideFlags: 0
  m_PrefabParentObject: {fileID: 0}
  m_PrefabInternal: {fileID: 0}
  m_GameObject: {fileID: 1625577194}
  m_Enabled: 1
  m_EditorHideFlags: 0
  m_Script: {fileID: -405508275, guid: f5f67c52d1564df4a8936ccd202a3bd8, type: 3}
  m_Name: 
  m_EditorClassIdentifier: 
  m_Padding:
    m_Left: 20
    m_Right: 20
    m_Top: 20
    m_Bottom: 20
  m_ChildAlignment: 4
  m_Spacing: 0
  m_ChildForceExpandWidth: 1
  m_ChildForceExpandHeight: 1
  m_ChildControlWidth: 1
  m_ChildControlHeight: 1
--- !u!1 &1678112878
GameObject:
  m_ObjectHideFlags: 0
  m_PrefabParentObject: {fileID: 0}
  m_PrefabInternal: {fileID: 0}
  serializedVersion: 5
  m_Component:
  - component: {fileID: 1678112879}
  m_Layer: 0
  m_Name: GunEnd
  m_TagString: Untagged
  m_Icon: {fileID: 0}
  m_NavMeshLayer: 0
  m_StaticEditorFlags: 0
  m_IsActive: 1
--- !u!4 &1678112879
Transform:
  m_ObjectHideFlags: 0
  m_PrefabParentObject: {fileID: 0}
  m_PrefabInternal: {fileID: 0}
  m_GameObject: {fileID: 1678112878}
  m_LocalRotation: {x: -0, y: -0, z: -0, w: 1}
  m_LocalPosition: {x: -0.003, y: 0.026, z: 0.705}
  m_LocalScale: {x: 1, y: 1, z: 1}
  m_Children:
  - {fileID: 1087667250}
  m_Father: {fileID: 1547811598}
  m_RootOrder: 1
  m_LocalEulerAnglesHint: {x: 0, y: 0, z: 0}
--- !u!4 &1679839614 stripped
Transform:
  m_PrefabParentObject: {fileID: 400004, guid: 47509307932d1e140a2b4d9024d228e4, type: 3}
  m_PrefabInternal: {fileID: 939503414}
--- !u!1001 &1689786812
Prefab:
  m_ObjectHideFlags: 0
  serializedVersion: 2
  m_Modification:
    m_TransformParent: {fileID: 1257235577}
    m_Modifications:
    - target: {fileID: 4000011175361746, guid: 7ca96822084510147adb2aea03d45e3b, type: 2}
      propertyPath: m_LocalPosition.x
      value: 0.0235
      objectReference: {fileID: 0}
    - target: {fileID: 4000011175361746, guid: 7ca96822084510147adb2aea03d45e3b, type: 2}
      propertyPath: m_LocalPosition.y
      value: 0.0501
      objectReference: {fileID: 0}
    - target: {fileID: 4000011175361746, guid: 7ca96822084510147adb2aea03d45e3b, type: 2}
      propertyPath: m_LocalPosition.z
      value: -0.038
      objectReference: {fileID: 0}
    - target: {fileID: 4000011175361746, guid: 7ca96822084510147adb2aea03d45e3b, type: 2}
      propertyPath: m_LocalRotation.x
      value: 0.000000014901161
      objectReference: {fileID: 0}
    - target: {fileID: 4000011175361746, guid: 7ca96822084510147adb2aea03d45e3b, type: 2}
      propertyPath: m_LocalRotation.y
      value: 0.94475424
      objectReference: {fileID: 0}
    - target: {fileID: 4000011175361746, guid: 7ca96822084510147adb2aea03d45e3b, type: 2}
      propertyPath: m_LocalRotation.z
      value: 0.00000014901161
      objectReference: {fileID: 0}
    - target: {fileID: 4000011175361746, guid: 7ca96822084510147adb2aea03d45e3b, type: 2}
      propertyPath: m_LocalRotation.w
      value: 0.32777965
      objectReference: {fileID: 0}
    - target: {fileID: 4000011175361746, guid: 7ca96822084510147adb2aea03d45e3b, type: 2}
      propertyPath: m_RootOrder
      value: 1
      objectReference: {fileID: 0}
    m_RemovedComponents: []
  m_ParentPrefab: {fileID: 100100000, guid: 7ca96822084510147adb2aea03d45e3b, type: 2}
  m_IsPrefabParent: 0
--- !u!1 &1724755371
GameObject:
  m_ObjectHideFlags: 0
  m_PrefabParentObject: {fileID: 0}
  m_PrefabInternal: {fileID: 0}
  serializedVersion: 5
  m_Component:
  - component: {fileID: 1724755372}
  m_Layer: 0
  m_Name: Cameras
  m_TagString: Untagged
  m_Icon: {fileID: 0}
  m_NavMeshLayer: 0
  m_StaticEditorFlags: 0
  m_IsActive: 1
--- !u!4 &1724755372
Transform:
  m_ObjectHideFlags: 0
  m_PrefabParentObject: {fileID: 0}
  m_PrefabInternal: {fileID: 0}
  m_GameObject: {fileID: 1724755371}
  m_LocalRotation: {x: 0, y: 0, z: 0, w: 1}
  m_LocalPosition: {x: 0, y: 0, z: 0}
  m_LocalScale: {x: 1, y: 1, z: 1}
  m_Children:
  - {fileID: 1033700481}
  m_Father: {fileID: 0}
  m_RootOrder: 1
  m_LocalEulerAnglesHint: {x: 0, y: 0, z: 0}
--- !u!1 &1749532736
GameObject:
  m_ObjectHideFlags: 0
  m_PrefabParentObject: {fileID: 0}
  m_PrefabInternal: {fileID: 0}
  serializedVersion: 5
  m_Component:
  - component: {fileID: 1749532737}
  m_Layer: 0
  m_Name: Environment
  m_TagString: Untagged
  m_Icon: {fileID: 0}
  m_NavMeshLayer: 0
  m_StaticEditorFlags: 0
  m_IsActive: 1
--- !u!4 &1749532737
Transform:
  m_ObjectHideFlags: 0
  m_PrefabParentObject: {fileID: 0}
  m_PrefabInternal: {fileID: 0}
  m_GameObject: {fileID: 1749532736}
  m_LocalRotation: {x: 0, y: 0, z: 0, w: 1}
  m_LocalPosition: {x: 0, y: 0, z: 0}
  m_LocalScale: {x: 1, y: 1, z: 1}
  m_Children:
  - {fileID: 1185268627}
  - {fileID: 1908232632}
  m_Father: {fileID: 0}
  m_RootOrder: 2
  m_LocalEulerAnglesHint: {x: 0, y: 0, z: 0}
--- !u!1 &1897646536
GameObject:
  m_ObjectHideFlags: 0
  m_PrefabParentObject: {fileID: 0}
  m_PrefabInternal: {fileID: 0}
  serializedVersion: 5
  m_Component:
  - component: {fileID: 1897646537}
  - component: {fileID: 1897646540}
  - component: {fileID: 1897646539}
  - component: {fileID: 1897646538}
  m_Layer: 5
  m_Name: ButtonRight
  m_TagString: Untagged
  m_Icon: {fileID: 0}
  m_NavMeshLayer: 0
  m_StaticEditorFlags: 0
  m_IsActive: 1
--- !u!224 &1897646537
RectTransform:
  m_ObjectHideFlags: 0
  m_PrefabParentObject: {fileID: 0}
  m_PrefabInternal: {fileID: 0}
  m_GameObject: {fileID: 1897646536}
  m_LocalRotation: {x: -0, y: -0, z: -0, w: 1}
  m_LocalPosition: {x: 0, y: 0, z: 0}
  m_LocalScale: {x: 0.5, y: 0.5, z: 0.5}
  m_Children:
  - {fileID: 962148261}
  m_Father: {fileID: 1625577195}
  m_RootOrder: 2
  m_LocalEulerAnglesHint: {x: 0, y: 0, z: 0}
  m_AnchorMin: {x: 0, y: 0}
  m_AnchorMax: {x: 0, y: 0}
  m_AnchoredPosition: {x: 0, y: 0}
  m_SizeDelta: {x: 0, y: 0}
  m_Pivot: {x: 0.5, y: 0.5}
--- !u!114 &1897646538
MonoBehaviour:
  m_ObjectHideFlags: 0
  m_PrefabParentObject: {fileID: 0}
  m_PrefabInternal: {fileID: 0}
  m_GameObject: {fileID: 1897646536}
  m_Enabled: 1
  m_EditorHideFlags: 0
  m_Script: {fileID: 1392445389, guid: f5f67c52d1564df4a8936ccd202a3bd8, type: 3}
  m_Name: 
  m_EditorClassIdentifier: 
  m_Navigation:
    m_Mode: 3
    m_SelectOnUp: {fileID: 0}
    m_SelectOnDown: {fileID: 0}
    m_SelectOnLeft: {fileID: 0}
    m_SelectOnRight: {fileID: 0}
  m_Transition: 1
  m_Colors:
    m_NormalColor: {r: 1, g: 1, b: 1, a: 1}
    m_HighlightedColor: {r: 0.9607843, g: 0.9607843, b: 0.9607843, a: 1}
    m_PressedColor: {r: 0.78431374, g: 0.78431374, b: 0.78431374, a: 1}
    m_DisabledColor: {r: 0.78431374, g: 0.78431374, b: 0.78431374, a: 0.5019608}
    m_ColorMultiplier: 1
    m_FadeDuration: 0.1
  m_SpriteState:
    m_HighlightedSprite: {fileID: 0}
    m_PressedSprite: {fileID: 0}
    m_DisabledSprite: {fileID: 0}
  m_AnimationTriggers:
    m_NormalTrigger: Normal
    m_HighlightedTrigger: Highlighted
    m_PressedTrigger: Pressed
    m_DisabledTrigger: Disabled
  m_Interactable: 1
  m_TargetGraphic: {fileID: 1897646539}
  m_OnClick:
    m_PersistentCalls:
      m_Calls:
      - m_Target: {fileID: 978515823}
        m_MethodName: Navigate
        m_Mode: 3
        m_Arguments:
          m_ObjectArgument: {fileID: 0}
          m_ObjectArgumentAssemblyTypeName: UnityEngine.Object, UnityEngine
          m_IntArgument: 1
          m_FloatArgument: 0
          m_StringArgument: 
          m_BoolArgument: 0
        m_CallState: 2
    m_TypeName: UnityEngine.UI.Button+ButtonClickedEvent, UnityEngine.UI, Version=1.0.0.0,
      Culture=neutral, PublicKeyToken=null
--- !u!114 &1897646539
MonoBehaviour:
  m_ObjectHideFlags: 0
  m_PrefabParentObject: {fileID: 0}
  m_PrefabInternal: {fileID: 0}
  m_GameObject: {fileID: 1897646536}
  m_Enabled: 1
  m_EditorHideFlags: 0
  m_Script: {fileID: -765806418, guid: f5f67c52d1564df4a8936ccd202a3bd8, type: 3}
  m_Name: 
  m_EditorClassIdentifier: 
  m_Material: {fileID: 0}
  m_Color: {r: 1, g: 1, b: 1, a: 0.078}
  m_RaycastTarget: 1
  m_OnCullStateChanged:
    m_PersistentCalls:
      m_Calls: []
    m_TypeName: UnityEngine.UI.MaskableGraphic+CullStateChangedEvent, UnityEngine.UI,
      Version=1.0.0.0, Culture=neutral, PublicKeyToken=null
  m_Sprite: {fileID: 10907, guid: 0000000000000000f000000000000000, type: 0}
  m_Type: 1
  m_PreserveAspect: 0
  m_FillCenter: 1
  m_FillMethod: 4
  m_FillAmount: 1
  m_FillClockwise: 1
  m_FillOrigin: 0
--- !u!222 &1897646540
CanvasRenderer:
  m_ObjectHideFlags: 0
  m_PrefabParentObject: {fileID: 0}
  m_PrefabInternal: {fileID: 0}
  m_GameObject: {fileID: 1897646536}
--- !u!1001 &1908232631
Prefab:
  m_ObjectHideFlags: 0
  serializedVersion: 2
  m_Modification:
    m_TransformParent: {fileID: 1749532737}
    m_Modifications:
    - target: {fileID: 400000, guid: f4527c479041fc040b53171204c086a5, type: 3}
      propertyPath: m_LocalPosition.x
      value: 2.2
      objectReference: {fileID: 0}
    - target: {fileID: 400000, guid: f4527c479041fc040b53171204c086a5, type: 3}
      propertyPath: m_LocalPosition.y
      value: 0
      objectReference: {fileID: 0}
    - target: {fileID: 400000, guid: f4527c479041fc040b53171204c086a5, type: 3}
      propertyPath: m_LocalPosition.z
      value: 11
      objectReference: {fileID: 0}
    - target: {fileID: 400000, guid: f4527c479041fc040b53171204c086a5, type: 3}
      propertyPath: m_LocalRotation.x
      value: -0.5000003
      objectReference: {fileID: 0}
    - target: {fileID: 400000, guid: f4527c479041fc040b53171204c086a5, type: 3}
      propertyPath: m_LocalRotation.y
      value: 0.49999985
      objectReference: {fileID: 0}
    - target: {fileID: 400000, guid: f4527c479041fc040b53171204c086a5, type: 3}
      propertyPath: m_LocalRotation.z
      value: 0.49999973
      objectReference: {fileID: 0}
    - target: {fileID: 400000, guid: f4527c479041fc040b53171204c086a5, type: 3}
      propertyPath: m_LocalRotation.w
      value: 0.50000024
      objectReference: {fileID: 0}
    - target: {fileID: 400000, guid: f4527c479041fc040b53171204c086a5, type: 3}
      propertyPath: m_RootOrder
      value: 1
      objectReference: {fileID: 0}
    - target: {fileID: 400000, guid: f4527c479041fc040b53171204c086a5, type: 3}
      propertyPath: m_LocalScale.y
      value: 2
      objectReference: {fileID: 0}
    - target: {fileID: 400000, guid: f4527c479041fc040b53171204c086a5, type: 3}
      propertyPath: m_LocalScale.z
      value: 2
      objectReference: {fileID: 0}
    - target: {fileID: 400000, guid: f4527c479041fc040b53171204c086a5, type: 3}
      propertyPath: m_LocalEulerAnglesHint.x
      value: -90.00001
      objectReference: {fileID: 0}
    - target: {fileID: 400000, guid: f4527c479041fc040b53171204c086a5, type: 3}
      propertyPath: m_LocalEulerAnglesHint.z
      value: 90.00001
      objectReference: {fileID: 0}
    - target: {fileID: 400000, guid: f4527c479041fc040b53171204c086a5, type: 3}
      propertyPath: m_LocalScale.x
      value: 2
      objectReference: {fileID: 0}
    - target: {fileID: 2300000, guid: f4527c479041fc040b53171204c086a5, type: 3}
      propertyPath: m_Materials.Array.data[0]
      value: 
      objectReference: {fileID: 2100000, guid: 0ae8aab4ae40e7741a636cf6e5136a55, type: 2}
    m_RemovedComponents: []
  m_ParentPrefab: {fileID: 100100000, guid: f4527c479041fc040b53171204c086a5, type: 3}
  m_IsPrefabParent: 0
--- !u!4 &1908232632 stripped
Transform:
  m_PrefabParentObject: {fileID: 400000, guid: f4527c479041fc040b53171204c086a5, type: 3}
  m_PrefabInternal: {fileID: 1908232631}
--- !u!1 &2002168960
GameObject:
  m_ObjectHideFlags: 0
  m_PrefabParentObject: {fileID: 0}
  m_PrefabInternal: {fileID: 0}
  serializedVersion: 5
  m_Component:
  - component: {fileID: 2002168963}
  - component: {fileID: 2002168962}
  - component: {fileID: 2002168961}
  m_Layer: 0
  m_Name: EventSystem
  m_TagString: Untagged
  m_Icon: {fileID: 0}
  m_NavMeshLayer: 0
  m_StaticEditorFlags: 0
  m_IsActive: 1
--- !u!114 &2002168961
MonoBehaviour:
  m_ObjectHideFlags: 0
  m_PrefabParentObject: {fileID: 0}
  m_PrefabInternal: {fileID: 0}
  m_GameObject: {fileID: 2002168960}
  m_Enabled: 1
  m_EditorHideFlags: 0
  m_Script: {fileID: 1077351063, guid: f5f67c52d1564df4a8936ccd202a3bd8, type: 3}
  m_Name: 
  m_EditorClassIdentifier: 
  m_HorizontalAxis: Horizontal
  m_VerticalAxis: Vertical
  m_SubmitButton: Submit
  m_CancelButton: Cancel
  m_InputActionsPerSecond: 10
  m_RepeatDelay: 0.5
  m_ForceModuleActive: 0
--- !u!114 &2002168962
MonoBehaviour:
  m_ObjectHideFlags: 0
  m_PrefabParentObject: {fileID: 0}
  m_PrefabInternal: {fileID: 0}
  m_GameObject: {fileID: 2002168960}
  m_Enabled: 1
  m_EditorHideFlags: 0
  m_Script: {fileID: -619905303, guid: f5f67c52d1564df4a8936ccd202a3bd8, type: 3}
  m_Name: 
  m_EditorClassIdentifier: 
  m_FirstSelected: {fileID: 0}
  m_sendNavigationEvents: 1
  m_DragThreshold: 5
--- !u!4 &2002168963
Transform:
  m_ObjectHideFlags: 0
  m_PrefabParentObject: {fileID: 0}
  m_PrefabInternal: {fileID: 0}
  m_GameObject: {fileID: 2002168960}
  m_LocalRotation: {x: 0, y: 0, z: 0, w: 1}
  m_LocalPosition: {x: 0, y: 0, z: 0}
  m_LocalScale: {x: 1, y: 1, z: 1}
  m_Children: []
  m_Father: {fileID: 0}
  m_RootOrder: 5
  m_LocalEulerAnglesHint: {x: 0, y: 0, z: 0}
--- !u!1001 &2047192111
Prefab:
  m_ObjectHideFlags: 0
  serializedVersion: 2
  m_Modification:
    m_TransformParent: {fileID: 1678112879}
    m_Modifications:
    - target: {fileID: 4000011227296186, guid: 9defeac88977c0d448aa4541073ee9e4, type: 2}
      propertyPath: m_LocalPosition.x
      value: -0
      objectReference: {fileID: 0}
    - target: {fileID: 4000011227296186, guid: 9defeac88977c0d448aa4541073ee9e4, type: 2}
      propertyPath: m_LocalPosition.y
      value: 0
      objectReference: {fileID: 0}
    - target: {fileID: 4000011227296186, guid: 9defeac88977c0d448aa4541073ee9e4, type: 2}
      propertyPath: m_LocalPosition.z
      value: 0.045
      objectReference: {fileID: 0}
    - target: {fileID: 4000011227296186, guid: 9defeac88977c0d448aa4541073ee9e4, type: 2}
      propertyPath: m_LocalRotation.x
      value: 0
      objectReference: {fileID: 0}
    - target: {fileID: 4000011227296186, guid: 9defeac88977c0d448aa4541073ee9e4, type: 2}
      propertyPath: m_LocalRotation.y
      value: -0.7071068
      objectReference: {fileID: 0}
    - target: {fileID: 4000011227296186, guid: 9defeac88977c0d448aa4541073ee9e4, type: 2}
      propertyPath: m_LocalRotation.z
      value: 0
      objectReference: {fileID: 0}
    - target: {fileID: 4000011227296186, guid: 9defeac88977c0d448aa4541073ee9e4, type: 2}
      propertyPath: m_LocalRotation.w
      value: 0.7071068
      objectReference: {fileID: 0}
    - target: {fileID: 4000011227296186, guid: 9defeac88977c0d448aa4541073ee9e4, type: 2}
      propertyPath: m_RootOrder
      value: 0
      objectReference: {fileID: 0}
    m_RemovedComponents: []
  m_ParentPrefab: {fileID: 100100000, guid: 9defeac88977c0d448aa4541073ee9e4, type: 2}
  m_IsPrefabParent: 0
--- !u!1 &2136418207
GameObject:
  m_ObjectHideFlags: 0
  m_PrefabParentObject: {fileID: 0}
  m_PrefabInternal: {fileID: 0}
  serializedVersion: 5
  m_Component:
  - component: {fileID: 2136418208}
  m_Layer: 5
  m_Name: TitleDescription
  m_TagString: Untagged
  m_Icon: {fileID: 0}
  m_NavMeshLayer: 0
  m_StaticEditorFlags: 0
  m_IsActive: 1
--- !u!224 &2136418208
RectTransform:
  m_ObjectHideFlags: 0
  m_PrefabParentObject: {fileID: 0}
  m_PrefabInternal: {fileID: 0}
  m_GameObject: {fileID: 2136418207}
  m_LocalRotation: {x: 0, y: 0, z: 0, w: 1}
  m_LocalPosition: {x: 0, y: 0, z: 0}
  m_LocalScale: {x: 1, y: 1, z: 1}
  m_Children:
  - {fileID: 1385382693}
  - {fileID: 190732355}
  m_Father: {fileID: 1077734314}
  m_RootOrder: 0
  m_LocalEulerAnglesHint: {x: 0, y: 0, z: 0}
  m_AnchorMin: {x: 0, y: 0.25}
  m_AnchorMax: {x: 1, y: 1}
  m_AnchoredPosition: {x: 0, y: 0}
  m_SizeDelta: {x: 0, y: 0}
  m_Pivot: {x: 0.5, y: 0.5}
